{
	"20210101": {
		"day": "五",
		"is_holiday": 2,
		"desc": "開國紀念日"
	},
	"20210102": {
		"day": "六",
		"is_holiday": 2,
		"desc": ""
	},
	"20210103": {
		"day": "日",
		"is_holiday": 2,
		"desc": ""
	},
	"20210104": {
		"day": "一",
		"is_holiday": 0,
		"desc": ""
	},
	"20210105": {
		"day": "二",
		"is_holiday": 0,
		"desc": ""
	},
	"20210106": {
		"day": "三",
		"is_holiday": 0,
		"desc": ""
	},
	"20210107": {
		"day": "四",
		"is_holiday": 0,
		"desc": ""
	},
	"20210108": {
		"day": "五",
		"is_holiday": 0,
		"desc": ""
	},
	"20210109": {
		"day": "六",
		"is_holiday": 2,
		"desc": ""
	},
	"20210110": {
		"day": "日",
		"is_holiday": 2,
		"desc": ""
	},
	"20210111": {
		"day": "一",
		"is_holiday": 0,
		"desc": ""
	},
	"20210112": {
		"day": "二",
		"is_holiday": 0,
		"desc": ""
	},
	"20210113": {
		"day": "三",
		"is_holiday": 0,
		"desc": ""
	},
	"20210114": {
		"day": "四",
		"is_holiday": 0,
		"desc": ""
	},
	"20210115": {
		"day": "五",
		"is_holiday": 0,
		"desc": ""
	},
	"20210116": {
		"day": "六",
		"is_holiday": 2,
		"desc": ""
	},
	"20210117": {
		"day": "日",
		"is_holiday": 2,
		"desc": ""
	},
	"20210118": {
		"day": "一",
		"is_holiday": 0,
		"desc": ""
	},
	"20210119": {
		"day": "二",
		"is_holiday": 0,
		"desc": ""
	},
	"20210120": {
		"day": "三",
		"is_holiday": 0,
		"desc": ""
	},
	"20210121": {
		"day": "四",
		"is_holiday": 0,
		"desc": ""
	},
	"20210122": {
		"day": "五",
		"is_holiday": 0,
		"desc": ""
	},
	"20210123": {
		"day": "六",
		"is_holiday": 2,
		"desc": ""
	},
	"20210124": {
		"day": "日",
		"is_holiday": 2,
		"desc": ""
	},
	"20210125": {
		"day": "一",
		"is_holiday": 0,
		"desc": ""
	},
	"20210126": {
		"day": "二",
		"is_holiday": 0,
		"desc": ""
	},
	"20210127": {
		"day": "三",
		"is_holiday": 0,
		"desc": ""
	},
	"20210128": {
		"day": "四",
		"is_holiday": 0,
		"desc": ""
	},
	"20210129": {
		"day": "五",
		"is_holiday": 0,
		"desc": ""
	},
	"20210130": {
		"day": "六",
		"is_holiday": 2,
		"desc": ""
	},
	"20210131": {
		"day": "日",
		"is_holiday": 2,
		"desc": ""
	},
	"20210201": {
		"day": "一",
		"is_holiday": 0,
		"desc": ""
	},
	"20210202": {
		"day": "二",
		"is_holiday": 0,
		"desc": ""
	},
	"20210203": {
		"day": "三",
		"is_holiday": 0,
		"desc": ""
	},
	"20210204": {
		"day": "四",
		"is_holiday": 0,
		"desc": ""
	},
	"20210205": {
		"day": "五",
		"is_holiday": 0,
		"desc": ""
	},
	"20210206": {
		"day": "六",
		"is_holiday": 2,
		"desc": ""
	},
	"20210207": {
		"day": "日",
		"is_holiday": 2,
		"desc": ""
	},
	"20210208": {
		"day": "一",
		"is_holiday": 0,
		"desc": ""
	},
	"20210209": {
		"day": "二",
		"is_holiday": 0,
		"desc": ""
	},
	"20210210": {
		"day": "三",
		"is_holiday": 2,
		"desc": "調整放假"
	},
	"20210211": {
		"day": "四",
		"is_holiday": 2,
		"desc": "農曆除夕"
	},
	"20210212": {
		"day": "五",
		"is_holiday": 2,
		"desc": "春節"
	},
	"20210213": {
		"day": "六",
		"is_holiday": 2,
		"desc": "春節"
	},
	"20210214": {
		"day": "日",
		"is_holiday": 2,
		"desc": "春節"
	},
	"20210215": {
		"day": "一",
		"is_holiday": 2,
		"desc": "補假"
	},
	"20210216": {
		"day": "二",
		"is_holiday": 2,
		"desc": "補假"
	},
	"20210217": {
		"day": "三",
		"is_holiday": 0,
		"desc": ""
	},
	"20210218": {
		"day": "四",
		"is_holiday": 0,
		"desc": ""
	},
	"20210219": {
		"day": "五",
		"is_holiday": 0,
		"desc": ""
	},
	"20210220": {
		"day": "六",
		"is_holiday": 0,
		"desc": "補行上班"
	},
	"20210221": {
		"day": "日",
		"is_holiday": 2,
		"desc": ""
	},
	"20210222": {
		"day": "一",
		"is_holiday": 0,
		"desc": ""
	},
	"20210223": {
		"day": "二",
		"is_holiday": 0,
		"desc": ""
	},
	"20210224": {
		"day": "三",
		"is_holiday": 0,
		"desc": ""
	},
	"20210225": {
		"day": "四",
		"is_holiday": 0,
		"desc": ""
	},
	"20210226": {
		"day": "五",
		"is_holiday": 0,
		"desc": ""
	},
	"20210227": {
		"day": "六",
		"is_holiday": 2,
		"desc": ""
	},
	"20210228": {
		"day": "日",
		"is_holiday": 2,
		"desc": "和平紀念日"
	},
	"20210301": {
		"day": "一",
		"is_holiday": 2,
		"desc": "補假"
	},
	"20210302": {
		"day": "二",
		"is_holiday": 0,
		"desc": ""
	},
	"20210303": {
		"day": "三",
		"is_holiday": 0,
		"desc": ""
	},
	"20210304": {
		"day": "四",
		"is_holiday": 0,
		"desc": ""
	},
	"20210305": {
		"day": "五",
		"is_holiday": 0,
		"desc": ""
	},
	"20210306": {
		"day": "六",
		"is_holiday": 2,
		"desc": ""
	},
	"20210307": {
		"day": "日",
		"is_holiday": 2,
		"desc": ""
	},
	"20210308": {
		"day": "一",
		"is_holiday": 0,
		"desc": ""
	},
	"20210309": {
		"day": "二",
		"is_holiday": 0,
		"desc": ""
	},
	"20210310": {
		"day": "三",
		"is_holiday": 0,
		"desc": ""
	},
	"20210311": {
		"day": "四",
		"is_holiday": 0,
		"desc": ""
	},
	"20210312": {
		"day": "五",
		"is_holiday": 0,
		"desc": ""
	},
	"20210313": {
		"day": "六",
		"is_holiday": 2,
		"desc": ""
	},
	"20210314": {
		"day": "日",
		"is_holiday": 2,
		"desc": ""
	},
	"20210315": {
		"day": "一",
		"is_holiday": 0,
		"desc": ""
	},
	"20210316": {
		"day": "二",
		"is_holiday": 0,
		"desc": ""
	},
	"20210317": {
		"day": "三",
		"is_holiday": 0,
		"desc": ""
	},
	"20210318": {
		"day": "四",
		"is_holiday": 0,
		"desc": ""
	},
	"20210319": {
		"day": "五",
		"is_holiday": 0,
		"desc": ""
	},
	"20210320": {
		"day": "六",
		"is_holiday": 2,
		"desc": ""
	},
	"20210321": {
		"day": "日",
		"is_holiday": 2,
		"desc": ""
	},
	"20210322": {
		"day": "一",
		"is_holiday": 0,
		"desc": ""
	},
	"20210323": {
		"day": "二",
		"is_holiday": 0,
		"desc": ""
	},
	"20210324": {
		"day": "三",
		"is_holiday": 0,
		"desc": ""
	},
	"20210325": {
		"day": "四",
		"is_holiday": 0,
		"desc": ""
	},
	"20210326": {
		"day": "五",
		"is_holiday": 0,
		"desc": ""
	},
	"20210327": {
		"day": "六",
		"is_holiday": 2,
		"desc": ""
	},
	"20210328": {
		"day": "日",
		"is_holiday": 2,
		"desc": ""
	},
	"20210329": {
		"day": "一",
		"is_holiday": 0,
		"desc": ""
	},
	"20210330": {
		"day": "二",
		"is_holiday": 0,
		"desc": ""
	},
	"20210331": {
		"day": "三",
		"is_holiday": 0,
		"desc": ""
	},
	"20210401": {
		"day": "四",
		"is_holiday": 0,
		"desc": ""
	},
	"20210402": {
		"day": "五",
		"is_holiday": 2,
		"desc": "補假"
	},
	"20210403": {
		"day": "六",
		"is_holiday": 2,
		"desc": ""
	},
	"20210404": {
		"day": "日",
		"is_holiday": 2,
		"desc": "兒童節及民族掃墓節"
	},
	"20210405": {
		"day": "一",
		"is_holiday": 2,
		"desc": "補假"
	},
	"20210406": {
		"day": "二",
		"is_holiday": 0,
		"desc": ""
	},
	"20210407": {
		"day": "三",
		"is_holiday": 0,
		"desc": ""
	},
	"20210408": {
		"day": "四",
		"is_holiday": 0,
		"desc": ""
	},
	"20210409": {
		"day": "五",
		"is_holiday": 0,
		"desc": ""
	},
	"20210410": {
		"day": "六",
		"is_holiday": 2,
		"desc": ""
	},
	"20210411": {
		"day": "日",
		"is_holiday": 2,
		"desc": ""
	},
	"20210412": {
		"day": "一",
		"is_holiday": 0,
		"desc": ""
	},
	"20210413": {
		"day": "二",
		"is_holiday": 0,
		"desc": ""
	},
	"20210414": {
		"day": "三",
		"is_holiday": 0,
		"desc": ""
	},
	"20210415": {
		"day": "四",
		"is_holiday": 0,
		"desc": ""
	},
	"20210416": {
		"day": "五",
		"is_holiday": 0,
		"desc": ""
	},
	"20210417": {
		"day": "六",
		"is_holiday": 2,
		"desc": ""
	},
	"20210418": {
		"day": "日",
		"is_holiday": 2,
		"desc": ""
	},
	"20210419": {
		"day": "一",
		"is_holiday": 0,
		"desc": ""
	},
	"20210420": {
		"day": "二",
		"is_holiday": 0,
		"desc": ""
	},
	"20210421": {
		"day": "三",
		"is_holiday": 0,
		"desc": ""
	},
	"20210422": {
		"day": "四",
		"is_holiday": 0,
		"desc": ""
	},
	"20210423": {
		"day": "五",
		"is_holiday": 0,
		"desc": ""
	},
	"20210424": {
		"day": "六",
		"is_holiday": 2,
		"desc": ""
	},
	"20210425": {
		"day": "日",
		"is_holiday": 2,
		"desc": ""
	},
	"20210426": {
		"day": "一",
		"is_holiday": 0,
		"desc": ""
	},
	"20210427": {
		"day": "二",
		"is_holiday": 0,
		"desc": ""
	},
	"20210428": {
		"day": "三",
		"is_holiday": 0,
		"desc": ""
	},
	"20210429": {
		"day": "四",
		"is_holiday": 0,
		"desc": ""
	},
	"20210430": {
		"day": "五",
		"is_holiday": 0,
		"desc": ""
	},
	"20210501": {
		"day": "六",
		"is_holiday": 2,
		"desc": ""
	},
	"20210502": {
		"day": "日",
		"is_holiday": 2,
		"desc": ""
	},
	"20210503": {
		"day": "一",
		"is_holiday": 0,
		"desc": ""
	},
	"20210504": {
		"day": "二",
		"is_holiday": 0,
		"desc": ""
	},
	"20210505": {
		"day": "三",
		"is_holiday": 0,
		"desc": ""
	},
	"20210506": {
		"day": "四",
		"is_holiday": 0,
		"desc": ""
	},
	"20210507": {
		"day": "五",
		"is_holiday": 0,
		"desc": ""
	},
	"20210508": {
		"day": "六",
		"is_holiday": 2,
		"desc": ""
	},
	"20210509": {
		"day": "日",
		"is_holiday": 2,
		"desc": ""
	},
	"20210510": {
		"day": "一",
		"is_holiday": 0,
		"desc": ""
	},
	"20210511": {
		"day": "二",
		"is_holiday": 0,
		"desc": ""
	},
	"20210512": {
		"day": "三",
		"is_holiday": 0,
		"desc": ""
	},
	"20210513": {
		"day": "四",
		"is_holiday": 0,
		"desc": ""
	},
	"20210514": {
		"day": "五",
		"is_holiday": 0,
		"desc": ""
	},
	"20210515": {
		"day": "六",
		"is_holiday": 2,
		"desc": ""
	},
	"20210516": {
		"day": "日",
		"is_holiday": 2,
		"desc": ""
	},
	"20210517": {
		"day": "一",
		"is_holiday": 0,
		"desc": ""
	},
	"20210518": {
		"day": "二",
		"is_holiday": 0,
		"desc": ""
	},
	"20210519": {
		"day": "三",
		"is_holiday": 0,
		"desc": ""
	},
	"20210520": {
		"day": "四",
		"is_holiday": 0,
		"desc": ""
	},
	"20210521": {
		"day": "五",
		"is_holiday": 0,
		"desc": ""
	},
	"20210522": {
		"day": "六",
		"is_holiday": 2,
		"desc": ""
	},
	"20210523": {
		"day": "日",
		"is_holiday": 2,
		"desc": ""
	},
	"20210524": {
		"day": "一",
		"is_holiday": 0,
		"desc": ""
	},
	"20210525": {
		"day": "二",
		"is_holiday": 0,
		"desc": ""
	},
	"20210526": {
		"day": "三",
		"is_holiday": 0,
		"desc": ""
	},
	"20210527": {
		"day": "四",
		"is_holiday": 0,
		"desc": ""
	},
	"20210528": {
		"day": "五",
		"is_holiday": 0,
		"desc": ""
	},
	"20210529": {
		"day": "六",
		"is_holiday": 2,
		"desc": ""
	},
	"20210530": {
		"day": "日",
		"is_holiday": 2,
		"desc": ""
	},
	"20210531": {
		"day": "一",
		"is_holiday": 0,
		"desc": ""
	},
	"20210601": {
		"day": "二",
		"is_holiday": 0,
		"desc": ""
	},
	"20210602": {
		"day": "三",
		"is_holiday": 0,
		"desc": ""
	},
	"20210603": {
		"day": "四",
		"is_holiday": 0,
		"desc": ""
	},
	"20210604": {
		"day": "五",
		"is_holiday": 0,
		"desc": ""
	},
	"20210605": {
		"day": "六",
		"is_holiday": 2,
		"desc": ""
	},
	"20210606": {
		"day": "日",
		"is_holiday": 2,
		"desc": ""
	},
	"20210607": {
		"day": "一",
		"is_holiday": 0,
		"desc": ""
	},
	"20210608": {
		"day": "二",
		"is_holiday": 0,
		"desc": ""
	},
	"20210609": {
		"day": "三",
		"is_holiday": 0,
		"desc": ""
	},
	"20210610": {
		"day": "四",
		"is_holiday": 0,
		"desc": ""
	},
	"20210611": {
		"day": "五",
		"is_holiday": 0,
		"desc": ""
	},
	"20210612": {
		"day": "六",
		"is_holiday": 2,
		"desc": ""
	},
	"20210613": {
		"day": "日",
		"is_holiday": 2,
		"desc": ""
	},
	"20210614": {
		"day": "一",
		"is_holiday": 2,
		"desc": "端午節"
	},
	"20210615": {
		"day": "二",
		"is_holiday": 0,
		"desc": ""
	},
	"20210616": {
		"day": "三",
		"is_holiday": 0,
		"desc": ""
	},
	"20210617": {
		"day": "四",
		"is_holiday": 0,
		"desc": ""
	},
	"20210618": {
		"day": "五",
		"is_holiday": 0,
		"desc": ""
	},
	"20210619": {
		"day": "六",
		"is_holiday": 2,
		"desc": ""
	},
	"20210620": {
		"day": "日",
		"is_holiday": 2,
		"desc": ""
	},
	"20210621": {
		"day": "一",
		"is_holiday": 0,
		"desc": ""
	},
	"20210622": {
		"day": "二",
		"is_holiday": 0,
		"desc": ""
	},
	"20210623": {
		"day": "三",
		"is_holiday": 0,
		"desc": ""
	},
	"20210624": {
		"day": "四",
		"is_holiday": 0,
		"desc": ""
	},
	"20210625": {
		"day": "五",
		"is_holiday": 0,
		"desc": ""
	},
	"20210626": {
		"day": "六",
		"is_holiday": 2,
		"desc": ""
	},
	"20210627": {
		"day": "日",
		"is_holiday": 2,
		"desc": ""
	},
	"20210628": {
		"day": "一",
		"is_holiday": 0,
		"desc": ""
	},
	"20210629": {
		"day": "二",
		"is_holiday": 0,
		"desc": ""
	},
	"20210630": {
		"day": "三",
		"is_holiday": 0,
		"desc": ""
	},
	"20210701": {
		"day": "四",
		"is_holiday": 0,
		"desc": ""
	},
	"20210702": {
		"day": "五",
		"is_holiday": 0,
		"desc": ""
	},
	"20210703": {
		"day": "六",
		"is_holiday": 2,
		"desc": ""
	},
	"20210704": {
		"day": "日",
		"is_holiday": 2,
		"desc": ""
	},
	"20210705": {
		"day": "一",
		"is_holiday": 0,
		"desc": ""
	},
	"20210706": {
		"day": "二",
		"is_holiday": 0,
		"desc": ""
	},
	"20210707": {
		"day": "三",
		"is_holiday": 0,
		"desc": ""
	},
	"20210708": {
		"day": "四",
		"is_holiday": 0,
		"desc": ""
	},
	"20210709": {
		"day": "五",
		"is_holiday": 0,
		"desc": ""
	},
	"20210710": {
		"day": "六",
		"is_holiday": 2,
		"desc": ""
	},
	"20210711": {
		"day": "日",
		"is_holiday": 2,
		"desc": ""
	},
	"20210712": {
		"day": "一",
		"is_holiday": 0,
		"desc": ""
	},
	"20210713": {
		"day": "二",
		"is_holiday": 0,
		"desc": ""
	},
	"20210714": {
		"day": "三",
		"is_holiday": 0,
		"desc": ""
	},
	"20210715": {
		"day": "四",
		"is_holiday": 0,
		"desc": ""
	},
	"20210716": {
		"day": "五",
		"is_holiday": 0,
		"desc": ""
	},
	"20210717": {
		"day": "六",
		"is_holiday": 2,
		"desc": ""
	},
	"20210718": {
		"day": "日",
		"is_holiday": 2,
		"desc": ""
	},
	"20210719": {
		"day": "一",
		"is_holiday": 0,
		"desc": ""
	},
	"20210720": {
		"day": "二",
		"is_holiday": 0,
		"desc": ""
	},
	"20210721": {
		"day": "三",
		"is_holiday": 0,
		"desc": ""
	},
	"20210722": {
		"day": "四",
		"is_holiday": 0,
		"desc": ""
	},
	"20210723": {
		"day": "五",
		"is_holiday": 0,
		"desc": ""
	},
	"20210724": {
		"day": "六",
		"is_holiday": 2,
		"desc": ""
	},
	"20210725": {
		"day": "日",
		"is_holiday": 2,
		"desc": ""
	},
	"20210726": {
		"day": "一",
		"is_holiday": 0,
		"desc": ""
	},
	"20210727": {
		"day": "二",
		"is_holiday": 0,
		"desc": ""
	},
	"20210728": {
		"day": "三",
		"is_holiday": 0,
		"desc": ""
	},
	"20210729": {
		"day": "四",
		"is_holiday": 0,
		"desc": ""
	},
	"20210730": {
		"day": "五",
		"is_holiday": 0,
		"desc": ""
	},
	"20210731": {
		"day": "六",
		"is_holiday": 2,
		"desc": ""
	},
	"20210801": {
		"day": "日",
		"is_holiday": 2,
		"desc": ""
	},
	"20210802": {
		"day": "一",
		"is_holiday": 0,
		"desc": ""
	},
	"20210803": {
		"day": "二",
		"is_holiday": 0,
		"desc": ""
	},
	"20210804": {
		"day": "三",
		"is_holiday": 0,
		"desc": ""
	},
	"20210805": {
		"day": "四",
		"is_holiday": 0,
		"desc": ""
	},
	"20210806": {
		"day": "五",
		"is_holiday": 0,
		"desc": ""
	},
	"20210807": {
		"day": "六",
		"is_holiday": 2,
		"desc": ""
	},
	"20210808": {
		"day": "日",
		"is_holiday": 2,
		"desc": ""
	},
	"20210809": {
		"day": "一",
		"is_holiday": 0,
		"desc": ""
	},
	"20210810": {
		"day": "二",
		"is_holiday": 0,
		"desc": ""
	},
	"20210811": {
		"day": "三",
		"is_holiday": 0,
		"desc": ""
	},
	"20210812": {
		"day": "四",
		"is_holiday": 0,
		"desc": ""
	},
	"20210813": {
		"day": "五",
		"is_holiday": 0,
		"desc": ""
	},
	"20210814": {
		"day": "六",
		"is_holiday": 2,
		"desc": ""
	},
	"20210815": {
		"day": "日",
		"is_holiday": 2,
		"desc": ""
	},
	"20210816": {
		"day": "一",
		"is_holiday": 0,
		"desc": ""
	},
	"20210817": {
		"day": "二",
		"is_holiday": 0,
		"desc": ""
	},
	"20210818": {
		"day": "三",
		"is_holiday": 0,
		"desc": ""
	},
	"20210819": {
		"day": "四",
		"is_holiday": 0,
		"desc": ""
	},
	"20210820": {
		"day": "五",
		"is_holiday": 0,
		"desc": ""
	},
	"20210821": {
		"day": "六",
		"is_holiday": 2,
		"desc": ""
	},
	"20210822": {
		"day": "日",
		"is_holiday": 2,
		"desc": ""
	},
	"20210823": {
		"day": "一",
		"is_holiday": 0,
		"desc": ""
	},
	"20210824": {
		"day": "二",
		"is_holiday": 0,
		"desc": ""
	},
	"20210825": {
		"day": "三",
		"is_holiday": 0,
		"desc": ""
	},
	"20210826": {
		"day": "四",
		"is_holiday": 0,
		"desc": ""
	},
	"20210827": {
		"day": "五",
		"is_holiday": 0,
		"desc": ""
	},
	"20210828": {
		"day": "六",
		"is_holiday": 2,
		"desc": ""
	},
	"20210829": {
		"day": "日",
		"is_holiday": 2,
		"desc": ""
	},
	"20210830": {
		"day": "一",
		"is_holiday": 0,
		"desc": ""
	},
	"20210831": {
		"day": "二",
		"is_holiday": 0,
		"desc": ""
	},
	"20210901": {
		"day": "三",
		"is_holiday": 0,
		"desc": ""
	},
	"20210902": {
		"day": "四",
		"is_holiday": 0,
		"desc": ""
	},
	"20210903": {
		"day": "五",
		"is_holiday": 0,
		"desc": ""
	},
	"20210904": {
		"day": "六",
		"is_holiday": 2,
		"desc": ""
	},
	"20210905": {
		"day": "日",
		"is_holiday": 2,
		"desc": ""
	},
	"20210906": {
		"day": "一",
		"is_holiday": 0,
		"desc": ""
	},
	"20210907": {
		"day": "二",
		"is_holiday": 0,
		"desc": ""
	},
	"20210908": {
		"day": "三",
		"is_holiday": 0,
		"desc": ""
	},
	"20210909": {
		"day": "四",
		"is_holiday": 0,
		"desc": ""
	},
	"20210910": {
		"day": "五",
		"is_holiday": 0,
		"desc": ""
	},
	"20210911": {
		"day": "六",
		"is_holiday": 0,
		"desc": "補行上班"
	},
	"20210912": {
		"day": "日",
		"is_holiday": 2,
		"desc": ""
	},
	"20210913": {
		"day": "一",
		"is_holiday": 0,
		"desc": ""
	},
	"20210914": {
		"day": "二",
		"is_holiday": 0,
		"desc": ""
	},
	"20210915": {
		"day": "三",
		"is_holiday": 0,
		"desc": ""
	},
	"20210916": {
		"day": "四",
		"is_holiday": 0,
		"desc": ""
	},
	"20210917": {
		"day": "五",
		"is_holiday": 0,
		"desc": ""
	},
	"20210918": {
		"day": "六",
		"is_holiday": 2,
		"desc": ""
	},
	"20210919": {
		"day": "日",
		"is_holiday": 2,
		"desc": ""
	},
	"20210920": {
		"day": "一",
		"is_holiday": 2,
		"desc": "調整放假"
	},
	"20210921": {
		"day": "二",
		"is_holiday": 2,
		"desc": "中秋節"
	},
	"20210922": {
		"day": "三",
		"is_holiday": 0,
		"desc": ""
	},
	"20210923": {
		"day": "四",
		"is_holiday": 0,
		"desc": ""
	},
	"20210924": {
		"day": "五",
		"is_holiday": 0,
		"desc": ""
	},
	"20210925": {
		"day": "六",
		"is_holiday": 2,
		"desc": ""
	},
	"20210926": {
		"day": "日",
		"is_holiday": 2,
		"desc": ""
	},
	"20210927": {
		"day": "一",
		"is_holiday": 0,
		"desc": ""
	},
	"20210928": {
		"day": "二",
		"is_holiday": 0,
		"desc": ""
	},
	"20210929": {
		"day": "三",
		"is_holiday": 0,
		"desc": ""
	},
	"20210930": {
		"day": "四",
		"is_holiday": 0,
		"desc": ""
	},
	"20211001": {
		"day": "五",
		"is_holiday": 0,
		"desc": ""
	},
	"20211002": {
		"day": "六",
		"is_holiday": 2,
		"desc": ""
	},
	"20211003": {
		"day": "日",
		"is_holiday": 2,
		"desc": ""
	},
	"20211004": {
		"day": "一",
		"is_holiday": 0,
		"desc": ""
	},
	"20211005": {
		"day": "二",
		"is_holiday": 0,
		"desc": ""
	},
	"20211006": {
		"day": "三",
		"is_holiday": 0,
		"desc": ""
	},
	"20211007": {
		"day": "四",
		"is_holiday": 0,
		"desc": ""
	},
	"20211008": {
		"day": "五",
		"is_holiday": 0,
		"desc": ""
	},
	"20211009": {
		"day": "六",
		"is_holiday": 2,
		"desc": ""
	},
	"20211010": {
		"day": "日",
		"is_holiday": 2,
		"desc": "國慶日"
	},
	"20211011": {
		"day": "一",
		"is_holiday": 2,
		"desc": "補假"
	},
	"20211012": {
		"day": "二",
		"is_holiday": 0,
		"desc": ""
	},
	"20211013": {
		"day": "三",
		"is_holiday": 0,
		"desc": ""
	},
	"20211014": {
		"day": "四",
		"is_holiday": 0,
		"desc": ""
	},
	"20211015": {
		"day": "五",
		"is_holiday": 0,
		"desc": ""
	},
	"20211016": {
		"day": "六",
		"is_holiday": 2,
		"desc": ""
	},
	"20211017": {
		"day": "日",
		"is_holiday": 2,
		"desc": ""
	},
	"20211018": {
		"day": "一",
		"is_holiday": 0,
		"desc": ""
	},
	"20211019": {
		"day": "二",
		"is_holiday": 0,
		"desc": ""
	},
	"20211020": {
		"day": "三",
		"is_holiday": 0,
		"desc": ""
	},
	"20211021": {
		"day": "四",
		"is_holiday": 0,
		"desc": ""
	},
	"20211022": {
		"day": "五",
		"is_holiday": 0,
		"desc": ""
	},
	"20211023": {
		"day": "六",
		"is_holiday": 2,
		"desc": ""
	},
	"20211024": {
		"day": "日",
		"is_holiday": 2,
		"desc": ""
	},
	"20211025": {
		"day": "一",
		"is_holiday": 0,
		"desc": ""
	},
	"20211026": {
		"day": "二",
		"is_holiday": 0,
		"desc": ""
	},
	"20211027": {
		"day": "三",
		"is_holiday": 0,
		"desc": ""
	},
	"20211028": {
		"day": "四",
		"is_holiday": 0,
		"desc": ""
	},
	"20211029": {
		"day": "五",
		"is_holiday": 0,
		"desc": ""
	},
	"20211030": {
		"day": "六",
		"is_holiday": 2,
		"desc": ""
	},
	"20211031": {
		"day": "日",
		"is_holiday": 2,
		"desc": ""
	},
	"20211101": {
		"day": "一",
		"is_holiday": 0,
		"desc": ""
	},
	"20211102": {
		"day": "二",
		"is_holiday": 0,
		"desc": ""
	},
	"20211103": {
		"day": "三",
		"is_holiday": 0,
		"desc": ""
	},
	"20211104": {
		"day": "四",
		"is_holiday": 0,
		"desc": ""
	},
	"20211105": {
		"day": "五",
		"is_holiday": 0,
		"desc": ""
	},
	"20211106": {
		"day": "六",
		"is_holiday": 2,
		"desc": ""
	},
	"20211107": {
		"day": "日",
		"is_holiday": 2,
		"desc": ""
	},
	"20211108": {
		"day": "一",
		"is_holiday": 0,
		"desc": ""
	},
	"20211109": {
		"day": "二",
		"is_holiday": 0,
		"desc": ""
	},
	"20211110": {
		"day": "三",
		"is_holiday": 0,
		"desc": ""
	},
	"20211111": {
		"day": "四",
		"is_holiday": 0,
		"desc": ""
	},
	"20211112": {
		"day": "五",
		"is_holiday": 0,
		"desc": ""
	},
	"20211113": {
		"day": "六",
		"is_holiday": 2,
		"desc": ""
	},
	"20211114": {
		"day": "日",
		"is_holiday": 2,
		"desc": ""
	},
	"20211115": {
		"day": "一",
		"is_holiday": 0,
		"desc": ""
	},
	"20211116": {
		"day": "二",
		"is_holiday": 0,
		"desc": ""
	},
	"20211117": {
		"day": "三",
		"is_holiday": 0,
		"desc": ""
	},
	"20211118": {
		"day": "四",
		"is_holiday": 0,
		"desc": ""
	},
	"20211119": {
		"day": "五",
		"is_holiday": 0,
		"desc": ""
	},
	"20211120": {
		"day": "六",
		"is_holiday": 2,
		"desc": ""
	},
	"20211121": {
		"day": "日",
		"is_holiday": 2,
		"desc": ""
	},
	"20211122": {
		"day": "一",
		"is_holiday": 0,
		"desc": ""
	},
	"20211123": {
		"day": "二",
		"is_holiday": 0,
		"desc": ""
	},
	"20211124": {
		"day": "三",
		"is_holiday": 0,
		"desc": ""
	},
	"20211125": {
		"day": "四",
		"is_holiday": 0,
		"desc": ""
	},
	"20211126": {
		"day": "五",
		"is_holiday": 0,
		"desc": ""
	},
	"20211127": {
		"day": "六",
		"is_holiday": 2,
		"desc": ""
	},
	"20211128": {
		"day": "日",
		"is_holiday": 2,
		"desc": ""
	},
	"20211129": {
		"day": "一",
		"is_holiday": 0,
		"desc": ""
	},
	"20211130": {
		"day": "二",
		"is_holiday": 0,
		"desc": ""
	},
	"20211201": {
		"day": "三",
		"is_holiday": 0,
		"desc": ""
	},
	"20211202": {
		"day": "四",
		"is_holiday": 0,
		"desc": ""
	},
	"20211203": {
		"day": "五",
		"is_holiday": 0,
		"desc": ""
	},
	"20211204": {
		"day": "六",
		"is_holiday": 2,
		"desc": ""
	},
	"20211205": {
		"day": "日",
		"is_holiday": 2,
		"desc": ""
	},
	"20211206": {
		"day": "一",
		"is_holiday": 0,
		"desc": ""
	},
	"20211207": {
		"day": "二",
		"is_holiday": 0,
		"desc": ""
	},
	"20211208": {
		"day": "三",
		"is_holiday": 0,
		"desc": ""
	},
	"20211209": {
		"day": "四",
		"is_holiday": 0,
		"desc": ""
	},
	"20211210": {
		"day": "五",
		"is_holiday": 0,
		"desc": ""
	},
	"20211211": {
		"day": "六",
		"is_holiday": 2,
		"desc": ""
	},
	"20211212": {
		"day": "日",
		"is_holiday": 2,
		"desc": ""
	},
	"20211213": {
		"day": "一",
		"is_holiday": 0,
		"desc": ""
	},
	"20211214": {
		"day": "二",
		"is_holiday": 0,
		"desc": ""
	},
	"20211215": {
		"day": "三",
		"is_holiday": 0,
		"desc": ""
	},
	"20211216": {
		"day": "四",
		"is_holiday": 0,
		"desc": ""
	},
	"20211217": {
		"day": "五",
		"is_holiday": 0,
		"desc": ""
	},
	"20211218": {
		"day": "六",
		"is_holiday": 2,
		"desc": ""
	},
	"20211219": {
		"day": "日",
		"is_holiday": 2,
		"desc": ""
	},
	"20211220": {
		"day": "一",
		"is_holiday": 0,
		"desc": ""
	},
	"20211221": {
		"day": "二",
		"is_holiday": 0,
		"desc": ""
	},
	"20211222": {
		"day": "三",
		"is_holiday": 0,
		"desc": ""
	},
	"20211223": {
		"day": "四",
		"is_holiday": 0,
		"desc": ""
	},
	"20211224": {
		"day": "五",
		"is_holiday": 0,
		"desc": ""
	},
	"20211225": {
		"day": "六",
		"is_holiday": 2,
		"desc": ""
	},
	"20211226": {
		"day": "日",
		"is_holiday": 2,
		"desc": ""
	},
	"20211227": {
		"day": "一",
		"is_holiday": 0,
		"desc": ""
	},
	"20211228": {
		"day": "二",
		"is_holiday": 0,
		"desc": ""
	},
	"20211229": {
		"day": "三",
		"is_holiday": 0,
		"desc": ""
	},
	"20211230": {
		"day": "四",
		"is_holiday": 0,
		"desc": ""
	},
	"20211231": {
		"day": "五",
		"is_holiday": 2,
		"desc": "補假"
	},
	"20220101": {
		"day": "六",
		"is_holiday": 2,
		"desc": "開國紀念日"
	},
	"20220102": {
		"day": "日",
		"is_holiday": 2,
		"desc": ""
	},
	"20220103": {
		"day": "一",
		"is_holiday": 0,
		"desc": ""
	},
	"20220104": {
		"day": "二",
		"is_holiday": 0,
		"desc": ""
	},
	"20220105": {
		"day": "三",
		"is_holiday": 0,
		"desc": ""
	},
	"20220106": {
		"day": "四",
		"is_holiday": 0,
		"desc": ""
	},
	"20220107": {
		"day": "五",
		"is_holiday": 0,
		"desc": ""
	},
	"20220108": {
		"day": "六",
		"is_holiday": 2,
		"desc": ""
	},
	"20220109": {
		"day": "日",
		"is_holiday": 2,
		"desc": ""
	},
	"20220110": {
		"day": "一",
		"is_holiday": 0,
		"desc": ""
	},
	"20220111": {
		"day": "二",
		"is_holiday": 0,
		"desc": ""
	},
	"20220112": {
		"day": "三",
		"is_holiday": 0,
		"desc": ""
	},
	"20220113": {
		"day": "四",
		"is_holiday": 0,
		"desc": ""
	},
	"20220114": {
		"day": "五",
		"is_holiday": 0,
		"desc": ""
	},
	"20220115": {
		"day": "六",
		"is_holiday": 2,
		"desc": ""
	},
	"20220116": {
		"day": "日",
		"is_holiday": 2,
		"desc": ""
	},
	"20220117": {
		"day": "一",
		"is_holiday": 0,
		"desc": ""
	},
	"20220118": {
		"day": "二",
		"is_holiday": 0,
		"desc": ""
	},
	"20220119": {
		"day": "三",
		"is_holiday": 0,
		"desc": ""
	},
	"20220120": {
		"day": "四",
		"is_holiday": 0,
		"desc": ""
	},
	"20220121": {
		"day": "五",
		"is_holiday": 0,
		"desc": ""
	},
	"20220122": {
		"day": "六",
		"is_holiday": 0,
		"desc": "補行上班"
	},
	"20220123": {
		"day": "日",
		"is_holiday": 2,
		"desc": ""
	},
	"20220124": {
		"day": "一",
		"is_holiday": 0,
		"desc": ""
	},
	"20220125": {
		"day": "二",
		"is_holiday": 0,
		"desc": ""
	},
	"20220126": {
		"day": "三",
		"is_holiday": 0,
		"desc": ""
	},
	"20220127": {
		"day": "四",
		"is_holiday": 0,
		"desc": ""
	},
	"20220128": {
		"day": "五",
		"is_holiday": 0,
		"desc": ""
	},
	"20220129": {
		"day": "六",
		"is_holiday": 2,
		"desc": ""
	},
	"20220130": {
		"day": "日",
		"is_holiday": 2,
		"desc": ""
	},
	"20220131": {
		"day": "一",
		"is_holiday": 2,
		"desc": "農曆除夕"
	},
	"20220201": {
		"day": "二",
		"is_holiday": 2,
		"desc": "春節"
	},
	"20220202": {
		"day": "三",
		"is_holiday": 2,
		"desc": "春節"
	},
	"20220203": {
		"day": "四",
		"is_holiday": 2,
		"desc": "春節"
	},
	"20220204": {
		"day": "五",
		"is_holiday": 2,
		"desc": "調整放假"
	},
	"20220205": {
		"day": "六",
		"is_holiday": 2,
		"desc": ""
	},
	"20220206": {
		"day": "日",
		"is_holiday": 2,
		"desc": ""
	},
	"20220207": {
		"day": "一",
		"is_holiday": 0,
		"desc": ""
	},
	"20220208": {
		"day": "二",
		"is_holiday": 0,
		"desc": ""
	},
	"20220209": {
		"day": "三",
		"is_holiday": 0,
		"desc": ""
	},
	"20220210": {
		"day": "四",
		"is_holiday": 0,
		"desc": ""
	},
	"20220211": {
		"day": "五",
		"is_holiday": 0,
		"desc": ""
	},
	"20220212": {
		"day": "六",
		"is_holiday": 2,
		"desc": ""
	},
	"20220213": {
		"day": "日",
		"is_holiday": 2,
		"desc": ""
	},
	"20220214": {
		"day": "一",
		"is_holiday": 0,
		"desc": ""
	},
	"20220215": {
		"day": "二",
		"is_holiday": 0,
		"desc": ""
	},
	"20220216": {
		"day": "三",
		"is_holiday": 0,
		"desc": ""
	},
	"20220217": {
		"day": "四",
		"is_holiday": 0,
		"desc": ""
	},
	"20220218": {
		"day": "五",
		"is_holiday": 0,
		"desc": ""
	},
	"20220219": {
		"day": "六",
		"is_holiday": 2,
		"desc": ""
	},
	"20220220": {
		"day": "日",
		"is_holiday": 2,
		"desc": ""
	},
	"20220221": {
		"day": "一",
		"is_holiday": 0,
		"desc": ""
	},
	"20220222": {
		"day": "二",
		"is_holiday": 0,
		"desc": ""
	},
	"20220223": {
		"day": "三",
		"is_holiday": 0,
		"desc": ""
	},
	"20220224": {
		"day": "四",
		"is_holiday": 0,
		"desc": ""
	},
	"20220225": {
		"day": "五",
		"is_holiday": 0,
		"desc": ""
	},
	"20220226": {
		"day": "六",
		"is_holiday": 2,
		"desc": ""
	},
	"20220227": {
		"day": "日",
		"is_holiday": 2,
		"desc": ""
	},
	"20220228": {
		"day": "一",
		"is_holiday": 2,
		"desc": "和平紀念日"
	},
	"20220301": {
		"day": "二",
		"is_holiday": 0,
		"desc": ""
	},
	"20220302": {
		"day": "三",
		"is_holiday": 0,
		"desc": ""
	},
	"20220303": {
		"day": "四",
		"is_holiday": 0,
		"desc": ""
	},
	"20220304": {
		"day": "五",
		"is_holiday": 0,
		"desc": ""
	},
	"20220305": {
		"day": "六",
		"is_holiday": 2,
		"desc": ""
	},
	"20220306": {
		"day": "日",
		"is_holiday": 2,
		"desc": ""
	},
	"20220307": {
		"day": "一",
		"is_holiday": 0,
		"desc": ""
	},
	"20220308": {
		"day": "二",
		"is_holiday": 0,
		"desc": ""
	},
	"20220309": {
		"day": "三",
		"is_holiday": 0,
		"desc": ""
	},
	"20220310": {
		"day": "四",
		"is_holiday": 0,
		"desc": ""
	},
	"20220311": {
		"day": "五",
		"is_holiday": 0,
		"desc": ""
	},
	"20220312": {
		"day": "六",
		"is_holiday": 2,
		"desc": ""
	},
	"20220313": {
		"day": "日",
		"is_holiday": 2,
		"desc": ""
	},
	"20220314": {
		"day": "一",
		"is_holiday": 0,
		"desc": ""
	},
	"20220315": {
		"day": "二",
		"is_holiday": 0,
		"desc": ""
	},
	"20220316": {
		"day": "三",
		"is_holiday": 0,
		"desc": ""
	},
	"20220317": {
		"day": "四",
		"is_holiday": 0,
		"desc": ""
	},
	"20220318": {
		"day": "五",
		"is_holiday": 0,
		"desc": ""
	},
	"20220319": {
		"day": "六",
		"is_holiday": 2,
		"desc": ""
	},
	"20220320": {
		"day": "日",
		"is_holiday": 2,
		"desc": ""
	},
	"20220321": {
		"day": "一",
		"is_holiday": 0,
		"desc": ""
	},
	"20220322": {
		"day": "二",
		"is_holiday": 0,
		"desc": ""
	},
	"20220323": {
		"day": "三",
		"is_holiday": 0,
		"desc": ""
	},
	"20220324": {
		"day": "四",
		"is_holiday": 0,
		"desc": ""
	},
	"20220325": {
		"day": "五",
		"is_holiday": 0,
		"desc": ""
	},
	"20220326": {
		"day": "六",
		"is_holiday": 2,
		"desc": ""
	},
	"20220327": {
		"day": "日",
		"is_holiday": 2,
		"desc": ""
	},
	"20220328": {
		"day": "一",
		"is_holiday": 0,
		"desc": ""
	},
	"20220329": {
		"day": "二",
		"is_holiday": 0,
		"desc": ""
	},
	"20220330": {
		"day": "三",
		"is_holiday": 0,
		"desc": ""
	},
	"20220331": {
		"day": "四",
		"is_holiday": 0,
		"desc": ""
	},
	"20220401": {
		"day": "五",
		"is_holiday": 0,
		"desc": ""
	},
	"20220402": {
		"day": "六",
		"is_holiday": 2,
		"desc": ""
	},
	"20220403": {
		"day": "日",
		"is_holiday": 2,
		"desc": ""
	},
	"20220404": {
		"day": "一",
		"is_holiday": 2,
		"desc": "兒童節"
	},
	"20220405": {
		"day": "二",
		"is_holiday": 2,
		"desc": "民族掃墓節"
	},
	"20220406": {
		"day": "三",
		"is_holiday": 0,
		"desc": ""
	},
	"20220407": {
		"day": "四",
		"is_holiday": 0,
		"desc": ""
	},
	"20220408": {
		"day": "五",
		"is_holiday": 0,
		"desc": ""
	},
	"20220409": {
		"day": "六",
		"is_holiday": 2,
		"desc": ""
	},
	"20220410": {
		"day": "日",
		"is_holiday": 2,
		"desc": ""
	},
	"20220411": {
		"day": "一",
		"is_holiday": 0,
		"desc": ""
	},
	"20220412": {
		"day": "二",
		"is_holiday": 0,
		"desc": ""
	},
	"20220413": {
		"day": "三",
		"is_holiday": 0,
		"desc": ""
	},
	"20220414": {
		"day": "四",
		"is_holiday": 0,
		"desc": ""
	},
	"20220415": {
		"day": "五",
		"is_holiday": 0,
		"desc": ""
	},
	"20220416": {
		"day": "六",
		"is_holiday": 2,
		"desc": ""
	},
	"20220417": {
		"day": "日",
		"is_holiday": 2,
		"desc": ""
	},
	"20220418": {
		"day": "一",
		"is_holiday": 0,
		"desc": ""
	},
	"20220419": {
		"day": "二",
		"is_holiday": 0,
		"desc": ""
	},
	"20220420": {
		"day": "三",
		"is_holiday": 0,
		"desc": ""
	},
	"20220421": {
		"day": "四",
		"is_holiday": 0,
		"desc": ""
	},
	"20220422": {
		"day": "五",
		"is_holiday": 0,
		"desc": ""
	},
	"20220423": {
		"day": "六",
		"is_holiday": 2,
		"desc": ""
	},
	"20220424": {
		"day": "日",
		"is_holiday": 2,
		"desc": ""
	},
	"20220425": {
		"day": "一",
		"is_holiday": 0,
		"desc": ""
	},
	"20220426": {
		"day": "二",
		"is_holiday": 0,
		"desc": ""
	},
	"20220427": {
		"day": "三",
		"is_holiday": 0,
		"desc": ""
	},
	"20220428": {
		"day": "四",
		"is_holiday": 0,
		"desc": ""
	},
	"20220429": {
		"day": "五",
		"is_holiday": 0,
		"desc": ""
	},
	"20220430": {
		"day": "六",
		"is_holiday": 2,
		"desc": ""
	},
	"20220501": {
		"day": "日",
		"is_holiday": 2,
		"desc": ""
	},
	"20220502": {
		"day": "一",
		"is_holiday": 0,
		"desc": ""
	},
	"20220503": {
		"day": "二",
		"is_holiday": 0,
		"desc": ""
	},
	"20220504": {
		"day": "三",
		"is_holiday": 0,
		"desc": ""
	},
	"20220505": {
		"day": "四",
		"is_holiday": 0,
		"desc": ""
	},
	"20220506": {
		"day": "五",
		"is_holiday": 0,
		"desc": ""
	},
	"20220507": {
		"day": "六",
		"is_holiday": 2,
		"desc": ""
	},
	"20220508": {
		"day": "日",
		"is_holiday": 2,
		"desc": ""
	},
	"20220509": {
		"day": "一",
		"is_holiday": 0,
		"desc": ""
	},
	"20220510": {
		"day": "二",
		"is_holiday": 0,
		"desc": ""
	},
	"20220511": {
		"day": "三",
		"is_holiday": 0,
		"desc": ""
	},
	"20220512": {
		"day": "四",
		"is_holiday": 0,
		"desc": ""
	},
	"20220513": {
		"day": "五",
		"is_holiday": 0,
		"desc": ""
	},
	"20220514": {
		"day": "六",
		"is_holiday": 2,
		"desc": ""
	},
	"20220515": {
		"day": "日",
		"is_holiday": 2,
		"desc": ""
	},
	"20220516": {
		"day": "一",
		"is_holiday": 0,
		"desc": ""
	},
	"20220517": {
		"day": "二",
		"is_holiday": 0,
		"desc": ""
	},
	"20220518": {
		"day": "三",
		"is_holiday": 0,
		"desc": ""
	},
	"20220519": {
		"day": "四",
		"is_holiday": 0,
		"desc": ""
	},
	"20220520": {
		"day": "五",
		"is_holiday": 0,
		"desc": ""
	},
	"20220521": {
		"day": "六",
		"is_holiday": 2,
		"desc": ""
	},
	"20220522": {
		"day": "日",
		"is_holiday": 2,
		"desc": ""
	},
	"20220523": {
		"day": "一",
		"is_holiday": 0,
		"desc": ""
	},
	"20220524": {
		"day": "二",
		"is_holiday": 0,
		"desc": ""
	},
	"20220525": {
		"day": "三",
		"is_holiday": 0,
		"desc": ""
	},
	"20220526": {
		"day": "四",
		"is_holiday": 0,
		"desc": ""
	},
	"20220527": {
		"day": "五",
		"is_holiday": 0,
		"desc": ""
	},
	"20220528": {
		"day": "六",
		"is_holiday": 2,
		"desc": ""
	},
	"20220529": {
		"day": "日",
		"is_holiday": 2,
		"desc": ""
	},
	"20220530": {
		"day": "一",
		"is_holiday": 0,
		"desc": ""
	},
	"20220531": {
		"day": "二",
		"is_holiday": 0,
		"desc": ""
	},
	"20220601": {
		"day": "三",
		"is_holiday": 0,
		"desc": ""
	},
	"20220602": {
		"day": "四",
		"is_holiday": 0,
		"desc": ""
	},
	"20220603": {
		"day": "五",
		"is_holiday": 2,
		"desc": "端午節"
	},
	"20220604": {
		"day": "六",
		"is_holiday": 2,
		"desc": ""
	},
	"20220605": {
		"day": "日",
		"is_holiday": 2,
		"desc": ""
	},
	"20220606": {
		"day": "一",
		"is_holiday": 0,
		"desc": ""
	},
	"20220607": {
		"day": "二",
		"is_holiday": 0,
		"desc": ""
	},
	"20220608": {
		"day": "三",
		"is_holiday": 0,
		"desc": ""
	},
	"20220609": {
		"day": "四",
		"is_holiday": 0,
		"desc": ""
	},
	"20220610": {
		"day": "五",
		"is_holiday": 0,
		"desc": ""
	},
	"20220611": {
		"day": "六",
		"is_holiday": 2,
		"desc": ""
	},
	"20220612": {
		"day": "日",
		"is_holiday": 2,
		"desc": ""
	},
	"20220613": {
		"day": "一",
		"is_holiday": 0,
		"desc": ""
	},
	"20220614": {
		"day": "二",
		"is_holiday": 0,
		"desc": ""
	},
	"20220615": {
		"day": "三",
		"is_holiday": 0,
		"desc": ""
	},
	"20220616": {
		"day": "四",
		"is_holiday": 0,
		"desc": ""
	},
	"20220617": {
		"day": "五",
		"is_holiday": 0,
		"desc": ""
	},
	"20220618": {
		"day": "六",
		"is_holiday": 2,
		"desc": ""
	},
	"20220619": {
		"day": "日",
		"is_holiday": 2,
		"desc": ""
	},
	"20220620": {
		"day": "一",
		"is_holiday": 0,
		"desc": ""
	},
	"20220621": {
		"day": "二",
		"is_holiday": 0,
		"desc": ""
	},
	"20220622": {
		"day": "三",
		"is_holiday": 0,
		"desc": ""
	},
	"20220623": {
		"day": "四",
		"is_holiday": 0,
		"desc": ""
	},
	"20220624": {
		"day": "五",
		"is_holiday": 0,
		"desc": ""
	},
	"20220625": {
		"day": "六",
		"is_holiday": 2,
		"desc": ""
	},
	"20220626": {
		"day": "日",
		"is_holiday": 2,
		"desc": ""
	},
	"20220627": {
		"day": "一",
		"is_holiday": 0,
		"desc": ""
	},
	"20220628": {
		"day": "二",
		"is_holiday": 0,
		"desc": ""
	},
	"20220629": {
		"day": "三",
		"is_holiday": 0,
		"desc": ""
	},
	"20220630": {
		"day": "四",
		"is_holiday": 0,
		"desc": ""
	},
	"20220701": {
		"day": "五",
		"is_holiday": 0,
		"desc": ""
	},
	"20220702": {
		"day": "六",
		"is_holiday": 2,
		"desc": ""
	},
	"20220703": {
		"day": "日",
		"is_holiday": 2,
		"desc": ""
	},
	"20220704": {
		"day": "一",
		"is_holiday": 0,
		"desc": ""
	},
	"20220705": {
		"day": "二",
		"is_holiday": 0,
		"desc": ""
	},
	"20220706": {
		"day": "三",
		"is_holiday": 0,
		"desc": ""
	},
	"20220707": {
		"day": "四",
		"is_holiday": 0,
		"desc": ""
	},
	"20220708": {
		"day": "五",
		"is_holiday": 0,
		"desc": ""
	},
	"20220709": {
		"day": "六",
		"is_holiday": 2,
		"desc": ""
	},
	"20220710": {
		"day": "日",
		"is_holiday": 2,
		"desc": ""
	},
	"20220711": {
		"day": "一",
		"is_holiday": 0,
		"desc": ""
	},
	"20220712": {
		"day": "二",
		"is_holiday": 0,
		"desc": ""
	},
	"20220713": {
		"day": "三",
		"is_holiday": 0,
		"desc": ""
	},
	"20220714": {
		"day": "四",
		"is_holiday": 0,
		"desc": ""
	},
	"20220715": {
		"day": "五",
		"is_holiday": 0,
		"desc": ""
	},
	"20220716": {
		"day": "六",
		"is_holiday": 2,
		"desc": ""
	},
	"20220717": {
		"day": "日",
		"is_holiday": 2,
		"desc": ""
	},
	"20220718": {
		"day": "一",
		"is_holiday": 0,
		"desc": ""
	},
	"20220719": {
		"day": "二",
		"is_holiday": 0,
		"desc": ""
	},
	"20220720": {
		"day": "三",
		"is_holiday": 0,
		"desc": ""
	},
	"20220721": {
		"day": "四",
		"is_holiday": 0,
		"desc": ""
	},
	"20220722": {
		"day": "五",
		"is_holiday": 0,
		"desc": ""
	},
	"20220723": {
		"day": "六",
		"is_holiday": 2,
		"desc": ""
	},
	"20220724": {
		"day": "日",
		"is_holiday": 2,
		"desc": ""
	},
	"20220725": {
		"day": "一",
		"is_holiday": 0,
		"desc": ""
	},
	"20220726": {
		"day": "二",
		"is_holiday": 0,
		"desc": ""
	},
	"20220727": {
		"day": "三",
		"is_holiday": 0,
		"desc": ""
	},
	"20220728": {
		"day": "四",
		"is_holiday": 0,
		"desc": ""
	},
	"20220729": {
		"day": "五",
		"is_holiday": 0,
		"desc": ""
	},
	"20220730": {
		"day": "六",
		"is_holiday": 2,
		"desc": ""
	},
	"20220731": {
		"day": "日",
		"is_holiday": 2,
		"desc": ""
	},
	"20220801": {
		"day": "一",
		"is_holiday": 0,
		"desc": ""
	},
	"20220802": {
		"day": "二",
		"is_holiday": 0,
		"desc": ""
	},
	"20220803": {
		"day": "三",
		"is_holiday": 0,
		"desc": ""
	},
	"20220804": {
		"day": "四",
		"is_holiday": 0,
		"desc": ""
	},
	"20220805": {
		"day": "五",
		"is_holiday": 0,
		"desc": ""
	},
	"20220806": {
		"day": "六",
		"is_holiday": 2,
		"desc": ""
	},
	"20220807": {
		"day": "日",
		"is_holiday": 2,
		"desc": ""
	},
	"20220808": {
		"day": "一",
		"is_holiday": 0,
		"desc": ""
	},
	"20220809": {
		"day": "二",
		"is_holiday": 0,
		"desc": ""
	},
	"20220810": {
		"day": "三",
		"is_holiday": 0,
		"desc": ""
	},
	"20220811": {
		"day": "四",
		"is_holiday": 0,
		"desc": ""
	},
	"20220812": {
		"day": "五",
		"is_holiday": 0,
		"desc": ""
	},
	"20220813": {
		"day": "六",
		"is_holiday": 2,
		"desc": ""
	},
	"20220814": {
		"day": "日",
		"is_holiday": 2,
		"desc": ""
	},
	"20220815": {
		"day": "一",
		"is_holiday": 0,
		"desc": ""
	},
	"20220816": {
		"day": "二",
		"is_holiday": 0,
		"desc": ""
	},
	"20220817": {
		"day": "三",
		"is_holiday": 0,
		"desc": ""
	},
	"20220818": {
		"day": "四",
		"is_holiday": 0,
		"desc": ""
	},
	"20220819": {
		"day": "五",
		"is_holiday": 0,
		"desc": ""
	},
	"20220820": {
		"day": "六",
		"is_holiday": 2,
		"desc": ""
	},
	"20220821": {
		"day": "日",
		"is_holiday": 2,
		"desc": ""
	},
	"20220822": {
		"day": "一",
		"is_holiday": 0,
		"desc": ""
	},
	"20220823": {
		"day": "二",
		"is_holiday": 0,
		"desc": ""
	},
	"20220824": {
		"day": "三",
		"is_holiday": 0,
		"desc": ""
	},
	"20220825": {
		"day": "四",
		"is_holiday": 0,
		"desc": ""
	},
	"20220826": {
		"day": "五",
		"is_holiday": 0,
		"desc": ""
	},
	"20220827": {
		"day": "六",
		"is_holiday": 2,
		"desc": ""
	},
	"20220828": {
		"day": "日",
		"is_holiday": 2,
		"desc": ""
	},
	"20220829": {
		"day": "一",
		"is_holiday": 0,
		"desc": ""
	},
	"20220830": {
		"day": "二",
		"is_holiday": 0,
		"desc": ""
	},
	"20220831": {
		"day": "三",
		"is_holiday": 0,
		"desc": ""
	},
	"20220901": {
		"day": "四",
		"is_holiday": 0,
		"desc": ""
	},
	"20220902": {
		"day": "五",
		"is_holiday": 0,
		"desc": ""
	},
	"20220903": {
		"day": "六",
		"is_holiday": 2,
		"desc": ""
	},
	"20220904": {
		"day": "日",
		"is_holiday": 2,
		"desc": ""
	},
	"20220905": {
		"day": "一",
		"is_holiday": 0,
		"desc": ""
	},
	"20220906": {
		"day": "二",
		"is_holiday": 0,
		"desc": ""
	},
	"20220907": {
		"day": "三",
		"is_holiday": 0,
		"desc": ""
	},
	"20220908": {
		"day": "四",
		"is_holiday": 0,
		"desc": ""
	},
	"20220909": {
		"day": "五",
		"is_holiday": 2,
		"desc": "補假"
	},
	"20220910": {
		"day": "六",
		"is_holiday": 2,
		"desc": "中秋節"
	},
	"20220911": {
		"day": "日",
		"is_holiday": 2,
		"desc": ""
	},
	"20220912": {
		"day": "一",
		"is_holiday": 0,
		"desc": ""
	},
	"20220913": {
		"day": "二",
		"is_holiday": 0,
		"desc": ""
	},
	"20220914": {
		"day": "三",
		"is_holiday": 0,
		"desc": ""
	},
	"20220915": {
		"day": "四",
		"is_holiday": 0,
		"desc": ""
	},
	"20220916": {
		"day": "五",
		"is_holiday": 0,
		"desc": ""
	},
	"20220917": {
		"day": "六",
		"is_holiday": 2,
		"desc": ""
	},
	"20220918": {
		"day": "日",
		"is_holiday": 2,
		"desc": ""
	},
	"20220919": {
		"day": "一",
		"is_holiday": 0,
		"desc": ""
	},
	"20220920": {
		"day": "二",
		"is_holiday": 0,
		"desc": ""
	},
	"20220921": {
		"day": "三",
		"is_holiday": 0,
		"desc": ""
	},
	"20220922": {
		"day": "四",
		"is_holiday": 0,
		"desc": ""
	},
	"20220923": {
		"day": "五",
		"is_holiday": 0,
		"desc": ""
	},
	"20220924": {
		"day": "六",
		"is_holiday": 2,
		"desc": ""
	},
	"20220925": {
		"day": "日",
		"is_holiday": 2,
		"desc": ""
	},
	"20220926": {
		"day": "一",
		"is_holiday": 0,
		"desc": ""
	},
	"20220927": {
		"day": "二",
		"is_holiday": 0,
		"desc": ""
	},
	"20220928": {
		"day": "三",
		"is_holiday": 0,
		"desc": ""
	},
	"20220929": {
		"day": "四",
		"is_holiday": 0,
		"desc": ""
	},
	"20220930": {
		"day": "五",
		"is_holiday": 0,
		"desc": ""
	},
	"20221001": {
		"day": "六",
		"is_holiday": 2,
		"desc": ""
	},
	"20221002": {
		"day": "日",
		"is_holiday": 2,
		"desc": ""
	},
	"20221003": {
		"day": "一",
		"is_holiday": 0,
		"desc": ""
	},
	"20221004": {
		"day": "二",
		"is_holiday": 0,
		"desc": ""
	},
	"20221005": {
		"day": "三",
		"is_holiday": 0,
		"desc": ""
	},
	"20221006": {
		"day": "四",
		"is_holiday": 0,
		"desc": ""
	},
	"20221007": {
		"day": "五",
		"is_holiday": 0,
		"desc": ""
	},
	"20221008": {
		"day": "六",
		"is_holiday": 2,
		"desc": ""
	},
	"20221009": {
		"day": "日",
		"is_holiday": 2,
		"desc": ""
	},
	"20221010": {
		"day": "一",
		"is_holiday": 2,
		"desc": "國慶日"
	},
	"20221011": {
		"day": "二",
		"is_holiday": 0,
		"desc": ""
	},
	"20221012": {
		"day": "三",
		"is_holiday": 0,
		"desc": ""
	},
	"20221013": {
		"day": "四",
		"is_holiday": 0,
		"desc": ""
	},
	"20221014": {
		"day": "五",
		"is_holiday": 0,
		"desc": ""
	},
	"20221015": {
		"day": "六",
		"is_holiday": 2,
		"desc": ""
	},
	"20221016": {
		"day": "日",
		"is_holiday": 2,
		"desc": ""
	},
	"20221017": {
		"day": "一",
		"is_holiday": 0,
		"desc": ""
	},
	"20221018": {
		"day": "二",
		"is_holiday": 0,
		"desc": ""
	},
	"20221019": {
		"day": "三",
		"is_holiday": 0,
		"desc": ""
	},
	"20221020": {
		"day": "四",
		"is_holiday": 0,
		"desc": ""
	},
	"20221021": {
		"day": "五",
		"is_holiday": 0,
		"desc": ""
	},
	"20221022": {
		"day": "六",
		"is_holiday": 2,
		"desc": ""
	},
	"20221023": {
		"day": "日",
		"is_holiday": 2,
		"desc": ""
	},
	"20221024": {
		"day": "一",
		"is_holiday": 0,
		"desc": ""
	},
	"20221025": {
		"day": "二",
		"is_holiday": 0,
		"desc": ""
	},
	"20221026": {
		"day": "三",
		"is_holiday": 0,
		"desc": ""
	},
	"20221027": {
		"day": "四",
		"is_holiday": 0,
		"desc": ""
	},
	"20221028": {
		"day": "五",
		"is_holiday": 0,
		"desc": ""
	},
	"20221029": {
		"day": "六",
		"is_holiday": 2,
		"desc": ""
	},
	"20221030": {
		"day": "日",
		"is_holiday": 2,
		"desc": ""
	},
	"20221031": {
		"day": "一",
		"is_holiday": 0,
		"desc": ""
	},
	"20221101": {
		"day": "二",
		"is_holiday": 0,
		"desc": ""
	},
	"20221102": {
		"day": "三",
		"is_holiday": 0,
		"desc": ""
	},
	"20221103": {
		"day": "四",
		"is_holiday": 0,
		"desc": ""
	},
	"20221104": {
		"day": "五",
		"is_holiday": 0,
		"desc": ""
	},
	"20221105": {
		"day": "六",
		"is_holiday": 2,
		"desc": ""
	},
	"20221106": {
		"day": "日",
		"is_holiday": 2,
		"desc": ""
	},
	"20221107": {
		"day": "一",
		"is_holiday": 0,
		"desc": ""
	},
	"20221108": {
		"day": "二",
		"is_holiday": 0,
		"desc": ""
	},
	"20221109": {
		"day": "三",
		"is_holiday": 0,
		"desc": ""
	},
	"20221110": {
		"day": "四",
		"is_holiday": 0,
		"desc": ""
	},
	"20221111": {
		"day": "五",
		"is_holiday": 0,
		"desc": ""
	},
	"20221112": {
		"day": "六",
		"is_holiday": 2,
		"desc": ""
	},
	"20221113": {
		"day": "日",
		"is_holiday": 2,
		"desc": ""
	},
	"20221114": {
		"day": "一",
		"is_holiday": 0,
		"desc": ""
	},
	"20221115": {
		"day": "二",
		"is_holiday": 0,
		"desc": ""
	},
	"20221116": {
		"day": "三",
		"is_holiday": 0,
		"desc": ""
	},
	"20221117": {
		"day": "四",
		"is_holiday": 0,
		"desc": ""
	},
	"20221118": {
		"day": "五",
		"is_holiday": 0,
		"desc": ""
	},
	"20221119": {
		"day": "六",
		"is_holiday": 2,
		"desc": ""
	},
	"20221120": {
		"day": "日",
		"is_holiday": 2,
		"desc": ""
	},
	"20221121": {
		"day": "一",
		"is_holiday": 0,
		"desc": ""
	},
	"20221122": {
		"day": "二",
		"is_holiday": 0,
		"desc": ""
	},
	"20221123": {
		"day": "三",
		"is_holiday": 0,
		"desc": ""
	},
	"20221124": {
		"day": "四",
		"is_holiday": 0,
		"desc": ""
	},
	"20221125": {
		"day": "五",
		"is_holiday": 0,
		"desc": ""
	},
	"20221126": {
		"day": "六",
		"is_holiday": 2,
		"desc": ""
	},
	"20221127": {
		"day": "日",
		"is_holiday": 2,
		"desc": ""
	},
	"20221128": {
		"day": "一",
		"is_holiday": 0,
		"desc": ""
	},
	"20221129": {
		"day": "二",
		"is_holiday": 0,
		"desc": ""
	},
	"20221130": {
		"day": "三",
		"is_holiday": 0,
		"desc": ""
	},
	"20221201": {
		"day": "四",
		"is_holiday": 0,
		"desc": ""
	},
	"20221202": {
		"day": "五",
		"is_holiday": 0,
		"desc": ""
	},
	"20221203": {
		"day": "六",
		"is_holiday": 2,
		"desc": ""
	},
	"20221204": {
		"day": "日",
		"is_holiday": 2,
		"desc": ""
	},
	"20221205": {
		"day": "一",
		"is_holiday": 0,
		"desc": ""
	},
	"20221206": {
		"day": "二",
		"is_holiday": 0,
		"desc": ""
	},
	"20221207": {
		"day": "三",
		"is_holiday": 0,
		"desc": ""
	},
	"20221208": {
		"day": "四",
		"is_holiday": 0,
		"desc": ""
	},
	"20221209": {
		"day": "五",
		"is_holiday": 0,
		"desc": ""
	},
	"20221210": {
		"day": "六",
		"is_holiday": 2,
		"desc": ""
	},
	"20221211": {
		"day": "日",
		"is_holiday": 2,
		"desc": ""
	},
	"20221212": {
		"day": "一",
		"is_holiday": 0,
		"desc": ""
	},
	"20221213": {
		"day": "二",
		"is_holiday": 0,
		"desc": ""
	},
	"20221214": {
		"day": "三",
		"is_holiday": 0,
		"desc": ""
	},
	"20221215": {
		"day": "四",
		"is_holiday": 0,
		"desc": ""
	},
	"20221216": {
		"day": "五",
		"is_holiday": 0,
		"desc": ""
	},
	"20221217": {
		"day": "六",
		"is_holiday": 2,
		"desc": ""
	},
	"20221218": {
		"day": "日",
		"is_holiday": 2,
		"desc": ""
	},
	"20221219": {
		"day": "一",
		"is_holiday": 0,
		"desc": ""
	},
	"20221220": {
		"day": "二",
		"is_holiday": 0,
		"desc": ""
	},
	"20221221": {
		"day": "三",
		"is_holiday": 0,
		"desc": ""
	},
	"20221222": {
		"day": "四",
		"is_holiday": 0,
		"desc": ""
	},
	"20221223": {
		"day": "五",
		"is_holiday": 0,
		"desc": ""
	},
	"20221224": {
		"day": "六",
		"is_holiday": 2,
		"desc": ""
	},
	"20221225": {
		"day": "日",
		"is_holiday": 2,
		"desc": ""
	},
	"20221226": {
		"day": "一",
		"is_holiday": 0,
		"desc": ""
	},
	"20221227": {
		"day": "二",
		"is_holiday": 0,
		"desc": ""
	},
	"20221228": {
		"day": "三",
		"is_holiday": 0,
		"desc": ""
	},
	"20221229": {
		"day": "四",
		"is_holiday": 0,
		"desc": ""
	},
	"20221230": {
		"day": "五",
		"is_holiday": 0,
		"desc": ""
	},
	"20221231": {
		"day": "六",
		"is_holiday": 2,
		"desc": ""
	},
	"20230101": {
		"day": "日",
		"is_holiday": 2,
		"desc": "開國紀念日"
	},
	"20230102": {
		"day": "一",
		"is_holiday": 2,
		"desc": "補假"
	},
	"20230103": {
		"day": "二",
		"is_holiday": 0,
		"desc": ""
	},
	"20230104": {
		"day": "三",
		"is_holiday": 0,
		"desc": ""
	},
	"20230105": {
		"day": "四",
		"is_holiday": 0,
		"desc": ""
	},
	"20230106": {
		"day": "五",
		"is_holiday": 0,
		"desc": ""
	},
	"20230107": {
		"day": "六",
		"is_holiday": 0,
		"desc": "補行上班"
	},
	"20230108": {
		"day": "日",
		"is_holiday": 2,
		"desc": ""
	},
	"20230109": {
		"day": "一",
		"is_holiday": 0,
		"desc": ""
	},
	"20230110": {
		"day": "二",
		"is_holiday": 0,
		"desc": ""
	},
	"20230111": {
		"day": "三",
		"is_holiday": 0,
		"desc": ""
	},
	"20230112": {
		"day": "四",
		"is_holiday": 0,
		"desc": ""
	},
	"20230113": {
		"day": "五",
		"is_holiday": 0,
		"desc": ""
	},
	"20230114": {
		"day": "六",
		"is_holiday": 2,
		"desc": ""
	},
	"20230115": {
		"day": "日",
		"is_holiday": 2,
		"desc": ""
	},
	"20230116": {
		"day": "一",
		"is_holiday": 0,
		"desc": ""
	},
	"20230117": {
		"day": "二",
		"is_holiday": 0,
		"desc": ""
	},
	"20230118": {
		"day": "三",
		"is_holiday": 0,
		"desc": ""
	},
	"20230119": {
		"day": "四",
		"is_holiday": 0,
		"desc": ""
	},
	"20230120": {
		"day": "五",
		"is_holiday": 2,
		"desc": "小年夜"
	},
	"20230121": {
		"day": "六",
		"is_holiday": 2,
		"desc": "農曆除夕"
	},
	"20230122": {
		"day": "日",
		"is_holiday": 2,
		"desc": "春節"
	},
	"20230123": {
		"day": "一",
		"is_holiday": 2,
		"desc": "春節"
	},
	"20230124": {
		"day": "二",
		"is_holiday": 2,
		"desc": "春節"
	},
	"20230125": {
		"day": "三",
		"is_holiday": 2,
		"desc": "補假"
	},
	"20230126": {
		"day": "四",
		"is_holiday": 2,
		"desc": "補假"
	},
	"20230127": {
		"day": "五",
		"is_holiday": 2,
		"desc": "調整放假"
	},
	"20230128": {
		"day": "六",
		"is_holiday": 2,
		"desc": ""
	},
	"20230129": {
		"day": "日",
		"is_holiday": 2,
		"desc": ""
	},
	"20230130": {
		"day": "一",
		"is_holiday": 0,
		"desc": ""
	},
	"20230131": {
		"day": "二",
		"is_holiday": 0,
		"desc": ""
	},
	"20230201": {
		"day": "三",
		"is_holiday": 0,
		"desc": ""
	},
	"20230202": {
		"day": "四",
		"is_holiday": 0,
		"desc": ""
	},
	"20230203": {
		"day": "五",
		"is_holiday": 0,
		"desc": ""
	},
	"20230204": {
		"day": "六",
		"is_holiday": 0,
		"desc": "補行上班"
	},
	"20230205": {
		"day": "日",
		"is_holiday": 2,
		"desc": ""
	},
	"20230206": {
		"day": "一",
		"is_holiday": 0,
		"desc": ""
	},
	"20230207": {
		"day": "二",
		"is_holiday": 0,
		"desc": ""
	},
	"20230208": {
		"day": "三",
		"is_holiday": 0,
		"desc": ""
	},
	"20230209": {
		"day": "四",
		"is_holiday": 0,
		"desc": ""
	},
	"20230210": {
		"day": "五",
		"is_holiday": 0,
		"desc": ""
	},
	"20230211": {
		"day": "六",
		"is_holiday": 2,
		"desc": ""
	},
	"20230212": {
		"day": "日",
		"is_holiday": 2,
		"desc": ""
	},
	"20230213": {
		"day": "一",
		"is_holiday": 0,
		"desc": ""
	},
	"20230214": {
		"day": "二",
		"is_holiday": 0,
		"desc": ""
	},
	"20230215": {
		"day": "三",
		"is_holiday": 0,
		"desc": ""
	},
	"20230216": {
		"day": "四",
		"is_holiday": 0,
		"desc": ""
	},
	"20230217": {
		"day": "五",
		"is_holiday": 0,
		"desc": ""
	},
	"20230218": {
		"day": "六",
		"is_holiday": 0,
		"desc": "補行上班"
	},
	"20230219": {
		"day": "日",
		"is_holiday": 2,
		"desc": ""
	},
	"20230220": {
		"day": "一",
		"is_holiday": 0,
		"desc": ""
	},
	"20230221": {
		"day": "二",
		"is_holiday": 0,
		"desc": ""
	},
	"20230222": {
		"day": "三",
		"is_holiday": 0,
		"desc": ""
	},
	"20230223": {
		"day": "四",
		"is_holiday": 0,
		"desc": ""
	},
	"20230224": {
		"day": "五",
		"is_holiday": 0,
		"desc": ""
	},
	"20230225": {
		"day": "六",
		"is_holiday": 2,
		"desc": ""
	},
	"20230226": {
		"day": "日",
		"is_holiday": 2,
		"desc": ""
	},
	"20230227": {
		"day": "一",
		"is_holiday": 2,
		"desc": "調整放假"
	},
	"20230228": {
		"day": "二",
		"is_holiday": 2,
		"desc": "和平紀念日"
	},
	"20230301": {
		"day": "三",
		"is_holiday": 0,
		"desc": ""
	},
	"20230302": {
		"day": "四",
		"is_holiday": 0,
		"desc": ""
	},
	"20230303": {
		"day": "五",
		"is_holiday": 0,
		"desc": ""
	},
	"20230304": {
		"day": "六",
		"is_holiday": 2,
		"desc": ""
	},
	"20230305": {
		"day": "日",
		"is_holiday": 2,
		"desc": ""
	},
	"20230306": {
		"day": "一",
		"is_holiday": 0,
		"desc": ""
	},
	"20230307": {
		"day": "二",
		"is_holiday": 0,
		"desc": ""
	},
	"20230308": {
		"day": "三",
		"is_holiday": 0,
		"desc": ""
	},
	"20230309": {
		"day": "四",
		"is_holiday": 0,
		"desc": ""
	},
	"20230310": {
		"day": "五",
		"is_holiday": 0,
		"desc": ""
	},
	"20230311": {
		"day": "六",
		"is_holiday": 2,
		"desc": ""
	},
	"20230312": {
		"day": "日",
		"is_holiday": 2,
		"desc": ""
	},
	"20230313": {
		"day": "一",
		"is_holiday": 0,
		"desc": ""
	},
	"20230314": {
		"day": "二",
		"is_holiday": 0,
		"desc": ""
	},
	"20230315": {
		"day": "三",
		"is_holiday": 0,
		"desc": ""
	},
	"20230316": {
		"day": "四",
		"is_holiday": 0,
		"desc": ""
	},
	"20230317": {
		"day": "五",
		"is_holiday": 0,
		"desc": ""
	},
	"20230318": {
		"day": "六",
		"is_holiday": 2,
		"desc": ""
	},
	"20230319": {
		"day": "日",
		"is_holiday": 2,
		"desc": ""
	},
	"20230320": {
		"day": "一",
		"is_holiday": 0,
		"desc": ""
	},
	"20230321": {
		"day": "二",
		"is_holiday": 0,
		"desc": ""
	},
	"20230322": {
		"day": "三",
		"is_holiday": 0,
		"desc": ""
	},
	"20230323": {
		"day": "四",
		"is_holiday": 0,
		"desc": ""
	},
	"20230324": {
		"day": "五",
		"is_holiday": 0,
		"desc": ""
	},
	"20230325": {
		"day": "六",
		"is_holiday": 0,
		"desc": "補行上班"
	},
	"20230326": {
		"day": "日",
		"is_holiday": 2,
		"desc": ""
	},
	"20230327": {
		"day": "一",
		"is_holiday": 0,
		"desc": ""
	},
	"20230328": {
		"day": "二",
		"is_holiday": 0,
		"desc": ""
	},
	"20230329": {
		"day": "三",
		"is_holiday": 0,
		"desc": ""
	},
	"20230330": {
		"day": "四",
		"is_holiday": 0,
		"desc": ""
	},
	"20230331": {
		"day": "五",
		"is_holiday": 0,
		"desc": ""
	},
	"20230401": {
		"day": "六",
		"is_holiday": 2,
		"desc": ""
	},
	"20230402": {
		"day": "日",
		"is_holiday": 2,
		"desc": ""
	},
	"20230403": {
		"day": "一",
		"is_holiday": 2,
		"desc": "調整放假"
	},
	"20230404": {
		"day": "二",
		"is_holiday": 2,
		"desc": "兒童節"
	},
	"20230405": {
		"day": "三",
		"is_holiday": 2,
		"desc": "民族掃墓節"
	},
	"20230406": {
		"day": "四",
		"is_holiday": 0,
		"desc": ""
	},
	"20230407": {
		"day": "五",
		"is_holiday": 0,
		"desc": ""
	},
	"20230408": {
		"day": "六",
		"is_holiday": 2,
		"desc": ""
	},
	"20230409": {
		"day": "日",
		"is_holiday": 2,
		"desc": ""
	},
	"20230410": {
		"day": "一",
		"is_holiday": 0,
		"desc": ""
	},
	"20230411": {
		"day": "二",
		"is_holiday": 0,
		"desc": ""
	},
	"20230412": {
		"day": "三",
		"is_holiday": 0,
		"desc": ""
	},
	"20230413": {
		"day": "四",
		"is_holiday": 0,
		"desc": ""
	},
	"20230414": {
		"day": "五",
		"is_holiday": 0,
		"desc": ""
	},
	"20230415": {
		"day": "六",
		"is_holiday": 2,
		"desc": ""
	},
	"20230416": {
		"day": "日",
		"is_holiday": 2,
		"desc": ""
	},
	"20230417": {
		"day": "一",
		"is_holiday": 0,
		"desc": ""
	},
	"20230418": {
		"day": "二",
		"is_holiday": 0,
		"desc": ""
	},
	"20230419": {
		"day": "三",
		"is_holiday": 0,
		"desc": ""
	},
	"20230420": {
		"day": "四",
		"is_holiday": 0,
		"desc": ""
	},
	"20230421": {
		"day": "五",
		"is_holiday": 0,
		"desc": ""
	},
	"20230422": {
		"day": "六",
		"is_holiday": 2,
		"desc": ""
	},
	"20230423": {
		"day": "日",
		"is_holiday": 2,
		"desc": ""
	},
	"20230424": {
		"day": "一",
		"is_holiday": 0,
		"desc": ""
	},
	"20230425": {
		"day": "二",
		"is_holiday": 0,
		"desc": ""
	},
	"20230426": {
		"day": "三",
		"is_holiday": 0,
		"desc": ""
	},
	"20230427": {
		"day": "四",
		"is_holiday": 0,
		"desc": ""
	},
	"20230428": {
		"day": "五",
		"is_holiday": 0,
		"desc": ""
	},
	"20230429": {
		"day": "六",
		"is_holiday": 2,
		"desc": ""
	},
	"20230430": {
		"day": "日",
		"is_holiday": 2,
		"desc": ""
	},
	"20230501": {
		"day": "一",
		"is_holiday": 0,
		"desc": ""
	},
	"20230502": {
		"day": "二",
		"is_holiday": 0,
		"desc": ""
	},
	"20230503": {
		"day": "三",
		"is_holiday": 0,
		"desc": ""
	},
	"20230504": {
		"day": "四",
		"is_holiday": 0,
		"desc": ""
	},
	"20230505": {
		"day": "五",
		"is_holiday": 0,
		"desc": ""
	},
	"20230506": {
		"day": "六",
		"is_holiday": 2,
		"desc": ""
	},
	"20230507": {
		"day": "日",
		"is_holiday": 2,
		"desc": ""
	},
	"20230508": {
		"day": "一",
		"is_holiday": 0,
		"desc": ""
	},
	"20230509": {
		"day": "二",
		"is_holiday": 0,
		"desc": ""
	},
	"20230510": {
		"day": "三",
		"is_holiday": 0,
		"desc": ""
	},
	"20230511": {
		"day": "四",
		"is_holiday": 0,
		"desc": ""
	},
	"20230512": {
		"day": "五",
		"is_holiday": 0,
		"desc": ""
	},
	"20230513": {
		"day": "六",
		"is_holiday": 2,
		"desc": ""
	},
	"20230514": {
		"day": "日",
		"is_holiday": 2,
		"desc": ""
	},
	"20230515": {
		"day": "一",
		"is_holiday": 0,
		"desc": ""
	},
	"20230516": {
		"day": "二",
		"is_holiday": 0,
		"desc": ""
	},
	"20230517": {
		"day": "三",
		"is_holiday": 0,
		"desc": ""
	},
	"20230518": {
		"day": "四",
		"is_holiday": 0,
		"desc": ""
	},
	"20230519": {
		"day": "五",
		"is_holiday": 0,
		"desc": ""
	},
	"20230520": {
		"day": "六",
		"is_holiday": 2,
		"desc": ""
	},
	"20230521": {
		"day": "日",
		"is_holiday": 2,
		"desc": ""
	},
	"20230522": {
		"day": "一",
		"is_holiday": 0,
		"desc": ""
	},
	"20230523": {
		"day": "二",
		"is_holiday": 0,
		"desc": ""
	},
	"20230524": {
		"day": "三",
		"is_holiday": 0,
		"desc": ""
	},
	"20230525": {
		"day": "四",
		"is_holiday": 0,
		"desc": ""
	},
	"20230526": {
		"day": "五",
		"is_holiday": 0,
		"desc": ""
	},
	"20230527": {
		"day": "六",
		"is_holiday": 2,
		"desc": ""
	},
	"20230528": {
		"day": "日",
		"is_holiday": 2,
		"desc": ""
	},
	"20230529": {
		"day": "一",
		"is_holiday": 0,
		"desc": ""
	},
	"20230530": {
		"day": "二",
		"is_holiday": 0,
		"desc": ""
	},
	"20230531": {
		"day": "三",
		"is_holiday": 0,
		"desc": ""
	},
	"20230601": {
		"day": "四",
		"is_holiday": 0,
		"desc": ""
	},
	"20230602": {
		"day": "五",
		"is_holiday": 0,
		"desc": ""
	},
	"20230603": {
		"day": "六",
		"is_holiday": 2,
		"desc": ""
	},
	"20230604": {
		"day": "日",
		"is_holiday": 2,
		"desc": ""
	},
	"20230605": {
		"day": "一",
		"is_holiday": 0,
		"desc": ""
	},
	"20230606": {
		"day": "二",
		"is_holiday": 0,
		"desc": ""
	},
	"20230607": {
		"day": "三",
		"is_holiday": 0,
		"desc": ""
	},
	"20230608": {
		"day": "四",
		"is_holiday": 0,
		"desc": ""
	},
	"20230609": {
		"day": "五",
		"is_holiday": 0,
		"desc": ""
	},
	"20230610": {
		"day": "六",
		"is_holiday": 2,
		"desc": ""
	},
	"20230611": {
		"day": "日",
		"is_holiday": 2,
		"desc": ""
	},
	"20230612": {
		"day": "一",
		"is_holiday": 0,
		"desc": ""
	},
	"20230613": {
		"day": "二",
		"is_holiday": 0,
		"desc": ""
	},
	"20230614": {
		"day": "三",
		"is_holiday": 0,
		"desc": ""
	},
	"20230615": {
		"day": "四",
		"is_holiday": 0,
		"desc": ""
	},
	"20230616": {
		"day": "五",
		"is_holiday": 0,
		"desc": ""
	},
	"20230617": {
		"day": "六",
		"is_holiday": 0,
		"desc": "補行上班"
	},
	"20230618": {
		"day": "日",
		"is_holiday": 2,
		"desc": ""
	},
	"20230619": {
		"day": "一",
		"is_holiday": 0,
		"desc": ""
	},
	"20230620": {
		"day": "二",
		"is_holiday": 0,
		"desc": ""
	},
	"20230621": {
		"day": "三",
		"is_holiday": 0,
		"desc": ""
	},
	"20230622": {
		"day": "四",
		"is_holiday": 2,
		"desc": "端午節"
	},
	"20230623": {
		"day": "五",
		"is_holiday": 2,
		"desc": "調整放假"
	},
	"20230624": {
		"day": "六",
		"is_holiday": 2,
		"desc": ""
	},
	"20230625": {
		"day": "日",
		"is_holiday": 2,
		"desc": ""
	},
	"20230626": {
		"day": "一",
		"is_holiday": 0,
		"desc": ""
	},
	"20230627": {
		"day": "二",
		"is_holiday": 0,
		"desc": ""
	},
	"20230628": {
		"day": "三",
		"is_holiday": 0,
		"desc": ""
	},
	"20230629": {
		"day": "四",
		"is_holiday": 0,
		"desc": ""
	},
	"20230630": {
		"day": "五",
		"is_holiday": 0,
		"desc": ""
	},
	"20230701": {
		"day": "六",
		"is_holiday": 2,
		"desc": ""
	},
	"20230702": {
		"day": "日",
		"is_holiday": 2,
		"desc": ""
	},
	"20230703": {
		"day": "一",
		"is_holiday": 0,
		"desc": ""
	},
	"20230704": {
		"day": "二",
		"is_holiday": 0,
		"desc": ""
	},
	"20230705": {
		"day": "三",
		"is_holiday": 0,
		"desc": ""
	},
	"20230706": {
		"day": "四",
		"is_holiday": 0,
		"desc": ""
	},
	"20230707": {
		"day": "五",
		"is_holiday": 0,
		"desc": ""
	},
	"20230708": {
		"day": "六",
		"is_holiday": 2,
		"desc": ""
	},
	"20230709": {
		"day": "日",
		"is_holiday": 2,
		"desc": ""
	},
	"20230710": {
		"day": "一",
		"is_holiday": 0,
		"desc": ""
	},
	"20230711": {
		"day": "二",
		"is_holiday": 0,
		"desc": ""
	},
	"20230712": {
		"day": "三",
		"is_holiday": 0,
		"desc": ""
	},
	"20230713": {
		"day": "四",
		"is_holiday": 0,
		"desc": ""
	},
	"20230714": {
		"day": "五",
		"is_holiday": 0,
		"desc": ""
	},
	"20230715": {
		"day": "六",
		"is_holiday": 2,
		"desc": ""
	},
	"20230716": {
		"day": "日",
		"is_holiday": 2,
		"desc": ""
	},
	"20230717": {
		"day": "一",
		"is_holiday": 0,
		"desc": ""
	},
	"20230718": {
		"day": "二",
		"is_holiday": 0,
		"desc": ""
	},
	"20230719": {
		"day": "三",
		"is_holiday": 0,
		"desc": ""
	},
	"20230720": {
		"day": "四",
		"is_holiday": 0,
		"desc": ""
	},
	"20230721": {
		"day": "五",
		"is_holiday": 0,
		"desc": ""
	},
	"20230722": {
		"day": "六",
		"is_holiday": 2,
		"desc": ""
	},
	"20230723": {
		"day": "日",
		"is_holiday": 2,
		"desc": ""
	},
	"20230724": {
		"day": "一",
		"is_holiday": 0,
		"desc": ""
	},
	"20230725": {
		"day": "二",
		"is_holiday": 0,
		"desc": ""
	},
	"20230726": {
		"day": "三",
		"is_holiday": 0,
		"desc": ""
	},
	"20230727": {
		"day": "四",
		"is_holiday": 0,
		"desc": ""
	},
	"20230728": {
		"day": "五",
		"is_holiday": 0,
		"desc": ""
	},
	"20230729": {
		"day": "六",
		"is_holiday": 2,
		"desc": ""
	},
	"20230730": {
		"day": "日",
		"is_holiday": 2,
		"desc": ""
	},
	"20230731": {
		"day": "一",
		"is_holiday": 0,
		"desc": ""
	},
	"20230801": {
		"day": "二",
		"is_holiday": 0,
		"desc": ""
	},
	"20230802": {
		"day": "三",
		"is_holiday": 0,
		"desc": ""
	},
	"20230803": {
		"day": "四",
		"is_holiday": 0,
		"desc": ""
	},
	"20230804": {
		"day": "五",
		"is_holiday": 0,
		"desc": ""
	},
	"20230805": {
		"day": "六",
		"is_holiday": 2,
		"desc": ""
	},
	"20230806": {
		"day": "日",
		"is_holiday": 2,
		"desc": ""
	},
	"20230807": {
		"day": "一",
		"is_holiday": 0,
		"desc": ""
	},
	"20230808": {
		"day": "二",
		"is_holiday": 0,
		"desc": ""
	},
	"20230809": {
		"day": "三",
		"is_holiday": 0,
		"desc": ""
	},
	"20230810": {
		"day": "四",
		"is_holiday": 0,
		"desc": ""
	},
	"20230811": {
		"day": "五",
		"is_holiday": 0,
		"desc": ""
	},
	"20230812": {
		"day": "六",
		"is_holiday": 2,
		"desc": ""
	},
	"20230813": {
		"day": "日",
		"is_holiday": 2,
		"desc": ""
	},
	"20230814": {
		"day": "一",
		"is_holiday": 0,
		"desc": ""
	},
	"20230815": {
		"day": "二",
		"is_holiday": 0,
		"desc": ""
	},
	"20230816": {
		"day": "三",
		"is_holiday": 0,
		"desc": ""
	},
	"20230817": {
		"day": "四",
		"is_holiday": 0,
		"desc": ""
	},
	"20230818": {
		"day": "五",
		"is_holiday": 0,
		"desc": ""
	},
	"20230819": {
		"day": "六",
		"is_holiday": 2,
		"desc": ""
	},
	"20230820": {
		"day": "日",
		"is_holiday": 2,
		"desc": ""
	},
	"20230821": {
		"day": "一",
		"is_holiday": 0,
		"desc": ""
	},
	"20230822": {
		"day": "二",
		"is_holiday": 0,
		"desc": ""
	},
	"20230823": {
		"day": "三",
		"is_holiday": 0,
		"desc": ""
	},
	"20230824": {
		"day": "四",
		"is_holiday": 0,
		"desc": ""
	},
	"20230825": {
		"day": "五",
		"is_holiday": 0,
		"desc": ""
	},
	"20230826": {
		"day": "六",
		"is_holiday": 2,
		"desc": ""
	},
	"20230827": {
		"day": "日",
		"is_holiday": 2,
		"desc": ""
	},
	"20230828": {
		"day": "一",
		"is_holiday": 0,
		"desc": ""
	},
	"20230829": {
		"day": "二",
		"is_holiday": 0,
		"desc": ""
	},
	"20230830": {
		"day": "三",
		"is_holiday": 0,
		"desc": ""
	},
	"20230831": {
		"day": "四",
		"is_holiday": 0,
		"desc": ""
	},
	"20230901": {
		"day": "五",
		"is_holiday": 0,
		"desc": ""
	},
	"20230902": {
		"day": "六",
		"is_holiday": 2,
		"desc": ""
	},
	"20230903": {
		"day": "日",
		"is_holiday": 2,
		"desc": ""
	},
	"20230904": {
		"day": "一",
		"is_holiday": 0,
		"desc": ""
	},
	"20230905": {
		"day": "二",
		"is_holiday": 0,
		"desc": ""
	},
	"20230906": {
		"day": "三",
		"is_holiday": 0,
		"desc": ""
	},
	"20230907": {
		"day": "四",
		"is_holiday": 0,
		"desc": ""
	},
	"20230908": {
		"day": "五",
		"is_holiday": 0,
		"desc": ""
	},
	"20230909": {
		"day": "六",
		"is_holiday": 2,
		"desc": ""
	},
	"20230910": {
		"day": "日",
		"is_holiday": 2,
		"desc": ""
	},
	"20230911": {
		"day": "一",
		"is_holiday": 0,
		"desc": ""
	},
	"20230912": {
		"day": "二",
		"is_holiday": 0,
		"desc": ""
	},
	"20230913": {
		"day": "三",
		"is_holiday": 0,
		"desc": ""
	},
	"20230914": {
		"day": "四",
		"is_holiday": 0,
		"desc": ""
	},
	"20230915": {
		"day": "五",
		"is_holiday": 0,
		"desc": ""
	},
	"20230916": {
		"day": "六",
		"is_holiday": 2,
		"desc": ""
	},
	"20230917": {
		"day": "日",
		"is_holiday": 2,
		"desc": ""
	},
	"20230918": {
		"day": "一",
		"is_holiday": 0,
		"desc": ""
	},
	"20230919": {
		"day": "二",
		"is_holiday": 0,
		"desc": ""
	},
	"20230920": {
		"day": "三",
		"is_holiday": 0,
		"desc": ""
	},
	"20230921": {
		"day": "四",
		"is_holiday": 0,
		"desc": ""
	},
	"20230922": {
		"day": "五",
		"is_holiday": 0,
		"desc": ""
	},
	"20230923": {
		"day": "六",
		"is_holiday": 0,
		"desc": "補行上班"
	},
	"20230924": {
		"day": "日",
		"is_holiday": 2,
		"desc": ""
	},
	"20230925": {
		"day": "一",
		"is_holiday": 0,
		"desc": ""
	},
	"20230926": {
		"day": "二",
		"is_holiday": 0,
		"desc": ""
	},
	"20230927": {
		"day": "三",
		"is_holiday": 0,
		"desc": ""
	},
	"20230928": {
		"day": "四",
		"is_holiday": 0,
		"desc": ""
	},
	"20230929": {
		"day": "五",
		"is_holiday": 2,
		"desc": "中秋節"
	},
	"20230930": {
		"day": "六",
		"is_holiday": 2,
		"desc": ""
	},
	"20231001": {
		"day": "日",
		"is_holiday": 2,
		"desc": ""
	},
	"20231002": {
		"day": "一",
		"is_holiday": 0,
		"desc": ""
	},
	"20231003": {
		"day": "二",
		"is_holiday": 0,
		"desc": ""
	},
	"20231004": {
		"day": "三",
		"is_holiday": 0,
		"desc": ""
	},
	"20231005": {
		"day": "四",
		"is_holiday": 0,
		"desc": ""
	},
	"20231006": {
		"day": "五",
		"is_holiday": 0,
		"desc": ""
	},
	"20231007": {
		"day": "六",
		"is_holiday": 2,
		"desc": ""
	},
	"20231008": {
		"day": "日",
		"is_holiday": 2,
		"desc": ""
	},
	"20231009": {
		"day": "一",
		"is_holiday": 2,
		"desc": "調整放假"
	},
	"20231010": {
		"day": "二",
		"is_holiday": 2,
		"desc": "國慶日"
	},
	"20231011": {
		"day": "三",
		"is_holiday": 0,
		"desc": ""
	},
	"20231012": {
		"day": "四",
		"is_holiday": 0,
		"desc": ""
	},
	"20231013": {
		"day": "五",
		"is_holiday": 0,
		"desc": ""
	},
	"20231014": {
		"day": "六",
		"is_holiday": 2,
		"desc": ""
	},
	"20231015": {
		"day": "日",
		"is_holiday": 2,
		"desc": ""
	},
	"20231016": {
		"day": "一",
		"is_holiday": 0,
		"desc": ""
	},
	"20231017": {
		"day": "二",
		"is_holiday": 0,
		"desc": ""
	},
	"20231018": {
		"day": "三",
		"is_holiday": 0,
		"desc": ""
	},
	"20231019": {
		"day": "四",
		"is_holiday": 0,
		"desc": ""
	},
	"20231020": {
		"day": "五",
		"is_holiday": 0,
		"desc": ""
	},
	"20231021": {
		"day": "六",
		"is_holiday": 2,
		"desc": ""
	},
	"20231022": {
		"day": "日",
		"is_holiday": 2,
		"desc": ""
	},
	"20231023": {
		"day": "一",
		"is_holiday": 0,
		"desc": ""
	},
	"20231024": {
		"day": "二",
		"is_holiday": 0,
		"desc": ""
	},
	"20231025": {
		"day": "三",
		"is_holiday": 0,
		"desc": ""
	},
	"20231026": {
		"day": "四",
		"is_holiday": 0,
		"desc": ""
	},
	"20231027": {
		"day": "五",
		"is_holiday": 0,
		"desc": ""
	},
	"20231028": {
		"day": "六",
		"is_holiday": 2,
		"desc": ""
	},
	"20231029": {
		"day": "日",
		"is_holiday": 2,
		"desc": ""
	},
	"20231030": {
		"day": "一",
		"is_holiday": 0,
		"desc": ""
	},
	"20231031": {
		"day": "二",
		"is_holiday": 0,
		"desc": ""
	},
	"20231101": {
		"day": "三",
		"is_holiday": 0,
		"desc": ""
	},
	"20231102": {
		"day": "四",
		"is_holiday": 0,
		"desc": ""
	},
	"20231103": {
		"day": "五",
		"is_holiday": 0,
		"desc": ""
	},
	"20231104": {
		"day": "六",
		"is_holiday": 2,
		"desc": ""
	},
	"20231105": {
		"day": "日",
		"is_holiday": 2,
		"desc": ""
	},
	"20231106": {
		"day": "一",
		"is_holiday": 0,
		"desc": ""
	},
	"20231107": {
		"day": "二",
		"is_holiday": 0,
		"desc": ""
	},
	"20231108": {
		"day": "三",
		"is_holiday": 0,
		"desc": ""
	},
	"20231109": {
		"day": "四",
		"is_holiday": 0,
		"desc": ""
	},
	"20231110": {
		"day": "五",
		"is_holiday": 0,
		"desc": ""
	},
	"20231111": {
		"day": "六",
		"is_holiday": 2,
		"desc": ""
	},
	"20231112": {
		"day": "日",
		"is_holiday": 2,
		"desc": ""
	},
	"20231113": {
		"day": "一",
		"is_holiday": 0,
		"desc": ""
	},
	"20231114": {
		"day": "二",
		"is_holiday": 0,
		"desc": ""
	},
	"20231115": {
		"day": "三",
		"is_holiday": 0,
		"desc": ""
	},
	"20231116": {
		"day": "四",
		"is_holiday": 0,
		"desc": ""
	},
	"20231117": {
		"day": "五",
		"is_holiday": 0,
		"desc": ""
	},
	"20231118": {
		"day": "六",
		"is_holiday": 2,
		"desc": ""
	},
	"20231119": {
		"day": "日",
		"is_holiday": 2,
		"desc": ""
	},
	"20231120": {
		"day": "一",
		"is_holiday": 0,
		"desc": ""
	},
	"20231121": {
		"day": "二",
		"is_holiday": 0,
		"desc": ""
	},
	"20231122": {
		"day": "三",
		"is_holiday": 0,
		"desc": ""
	},
	"20231123": {
		"day": "四",
		"is_holiday": 0,
		"desc": ""
	},
	"20231124": {
		"day": "五",
		"is_holiday": 0,
		"desc": ""
	},
	"20231125": {
		"day": "六",
		"is_holiday": 2,
		"desc": ""
	},
	"20231126": {
		"day": "日",
		"is_holiday": 2,
		"desc": ""
	},
	"20231127": {
		"day": "一",
		"is_holiday": 0,
		"desc": ""
	},
	"20231128": {
		"day": "二",
		"is_holiday": 0,
		"desc": ""
	},
	"20231129": {
		"day": "三",
		"is_holiday": 0,
		"desc": ""
	},
	"20231130": {
		"day": "四",
		"is_holiday": 0,
		"desc": ""
	},
	"20231201": {
		"day": "五",
		"is_holiday": 0,
		"desc": ""
	},
	"20231202": {
		"day": "六",
		"is_holiday": 2,
		"desc": ""
	},
	"20231203": {
		"day": "日",
		"is_holiday": 2,
		"desc": ""
	},
	"20231204": {
		"day": "一",
		"is_holiday": 0,
		"desc": ""
	},
	"20231205": {
		"day": "二",
		"is_holiday": 0,
		"desc": ""
	},
	"20231206": {
		"day": "三",
		"is_holiday": 0,
		"desc": ""
	},
	"20231207": {
		"day": "四",
		"is_holiday": 0,
		"desc": ""
	},
	"20231208": {
		"day": "五",
		"is_holiday": 0,
		"desc": ""
	},
	"20231209": {
		"day": "六",
		"is_holiday": 2,
		"desc": ""
	},
	"20231210": {
		"day": "日",
		"is_holiday": 2,
		"desc": ""
	},
	"20231211": {
		"day": "一",
		"is_holiday": 0,
		"desc": ""
	},
	"20231212": {
		"day": "二",
		"is_holiday": 0,
		"desc": ""
	},
	"20231213": {
		"day": "三",
		"is_holiday": 0,
		"desc": ""
	},
	"20231214": {
		"day": "四",
		"is_holiday": 0,
		"desc": ""
	},
	"20231215": {
		"day": "五",
		"is_holiday": 0,
		"desc": ""
	},
	"20231216": {
		"day": "六",
		"is_holiday": 2,
		"desc": ""
	},
	"20231217": {
		"day": "日",
		"is_holiday": 2,
		"desc": ""
	},
	"20231218": {
		"day": "一",
		"is_holiday": 0,
		"desc": ""
	},
	"20231219": {
		"day": "二",
		"is_holiday": 0,
		"desc": ""
	},
	"20231220": {
		"day": "三",
		"is_holiday": 0,
		"desc": ""
	},
	"20231221": {
		"day": "四",
		"is_holiday": 0,
		"desc": ""
	},
	"20231222": {
		"day": "五",
		"is_holiday": 0,
		"desc": ""
	},
	"20231223": {
		"day": "六",
		"is_holiday": 2,
		"desc": ""
	},
	"20231224": {
		"day": "日",
		"is_holiday": 2,
		"desc": ""
	},
	"20231225": {
		"day": "一",
		"is_holiday": 0,
		"desc": ""
	},
	"20231226": {
		"day": "二",
		"is_holiday": 0,
		"desc": ""
	},
	"20231227": {
		"day": "三",
		"is_holiday": 0,
		"desc": ""
	},
	"20231228": {
		"day": "四",
		"is_holiday": 0,
		"desc": ""
	},
	"20231229": {
		"day": "五",
		"is_holiday": 0,
		"desc": ""
	},
	"20231230": {
		"day": "六",
		"is_holiday": 2,
		"desc": ""
	},
	"20231231": {
		"day": "日",
		"is_holiday": 2,
		"desc": ""
	}
}